^C:\USERS\VANCE\DOCUMENTS\VISUAL STUDIO 2010\PROJECTS\ASSIGNMENT2\ASSIGNMENT2\TOWN.CPP
C:\USERS\VANCE\DOCUMENTS\VISUAL STUDIO 2010\PROJECTS\ASSIGNMENT2\ASSIGNMENT2\TOWN.H
D:\软件\MICROSOFT VISUAL STUDIO 10.0\VC\INCLUDE\IOSTREAM
D:\软件\MICROSOFT VISUAL STUDIO 10.0\VC\INCLUDE\ISTREAM
D:\软件\MICROSOFT VISUAL STUDIO 10.0\VC\INCLUDE\OSTREAM
D:\软件\MICROSOFT VISUAL STUDIO 10.0\VC\INCLUDE\IOS
D:\软件\MICROSOFT VISUAL STUDIO 10.0\VC\INCLUDE\XLOCNUM
D:\软件\MICROSOFT VISUAL STUDIO 10.0\VC\INCLUDE\CLIMITS
D:\软件\MICROSOFT VISUAL STUDIO 10.0\VC\INCLUDE\YVALS.H
D:\软件\MICROSOFT VISUAL STUDIO 10.0\VC\INCLUDE\CRTDEFS.H
D:\软件\MICROSOFT VISUAL STUDIO 10.0\VC\INCLUDE\SAL.H
D:\软件\MICROSOFT VISUAL STUDIO 10.0\VC\INCLUDE\CODEANALYSIS\SOURCEANNOTATIONS.H
D:\软件\MICROSOFT VISUAL STUDIO 10.0\VC\INCLUDE\VADEFS.H
D:\软件\MICROSOFT VISUAL STUDIO 10.0\VC\INCLUDE\USE_ANSI.H
D:\软件\MICROSOFT VISUAL STUDIO 10.0\VC\INCLUDE\LIMITS.H
D:\软件\MICROSOFT VISUAL STUDIO 10.0\VC\INCLUDE\CMATH
D:\软件\MICROSOFT VISUAL STUDIO 10.0\VC\INCLUDE\MATH.H
D:\软件\MICROSOFT VISUAL STUDIO 10.0\VC\INCLUDE\CSTDIO
D:\软件\MICROSOFT VISUAL STUDIO 10.0\VC\INCLUDE\STDIO.H
D:\软件\MICROSOFT VISUAL STUDIO 10.0\VC\INCLUDE\SWPRINTF.INL
D:\软件\MICROSOFT VISUAL STUDIO 10.0\VC\INCLUDE\CSTDLIB
D:\软件\MICROSOFT VISUAL STUDIO 10.0\VC\INCLUDE\STDLIB.H
D:\软件\MICROSOFT VISUAL STUDIO 10.0\VC\INCLUDE\STREAMBUF
D:\软件\MICROSOFT VISUAL STUDIO 10.0\VC\INCLUDE\XIOSBASE
D:\软件\MICROSOFT VISUAL STUDIO 10.0\VC\INCLUDE\XLOCALE
D:\软件\MICROSOFT VISUAL STUDIO 10.0\VC\INCLUDE\CSTRING
D:\软件\MICROSOFT VISUAL STUDIO 10.0\VC\INCLUDE\STRING.H
D:\软件\MICROSOFT VISUAL STUDIO 10.0\VC\INCLUDE\STDEXCEPT
D:\软件\MICROSOFT VISUAL STUDIO 10.0\VC\INCLUDE\EXCEPTION
D:\软件\MICROSOFT VISUAL STUDIO 10.0\VC\INCLUDE\XSTDDEF
D:\软件\MICROSOFT VISUAL STUDIO 10.0\VC\INCLUDE\CSTDDEF
D:\软件\MICROSOFT VISUAL STUDIO 10.0\VC\INCLUDE\STDDEF.H
D:\软件\MICROSOFT VISUAL STUDIO 10.0\VC\INCLUDE\EH.H
D:\软件\MICROSOFT VISUAL STUDIO 10.0\VC\INCLUDE\MALLOC.H
D:\软件\MICROSOFT VISUAL STUDIO 10.0\VC\INCLUDE\XSTRING
D:\软件\MICROSOFT VISUAL STUDIO 10.0\VC\INCLUDE\XMEMORY
D:\软件\MICROSOFT VISUAL STUDIO 10.0\VC\INCLUDE\NEW
D:\软件\MICROSOFT VISUAL STUDIO 10.0\VC\INCLUDE\XUTILITY
D:\软件\MICROSOFT VISUAL STUDIO 10.0\VC\INCLUDE\UTILITY
D:\软件\MICROSOFT VISUAL STUDIO 10.0\VC\INCLUDE\IOSFWD
D:\软件\MICROSOFT VISUAL STUDIO 10.0\VC\INCLUDE\CWCHAR
D:\软件\MICROSOFT VISUAL STUDIO 10.0\VC\INCLUDE\WCHAR.H
D:\软件\MICROSOFT VISUAL STUDIO 10.0\VC\INCLUDE\WTIME.INL
D:\软件\MICROSOFT VISUAL STUDIO 10.0\VC\INCLUDE\CRTDBG.H
D:\软件\MICROSOFT VISUAL STUDIO 10.0\VC\INCLUDE\TYPE_TRAITS
D:\软件\MICROSOFT VISUAL STUDIO 10.0\VC\INCLUDE\LIMITS
D:\软件\MICROSOFT VISUAL STUDIO 10.0\VC\INCLUDE\YMATH.H
D:\软件\MICROSOFT VISUAL STUDIO 10.0\VC\INCLUDE\CFLOAT
D:\软件\MICROSOFT VISUAL STUDIO 10.0\VC\INCLUDE\FLOAT.H
D:\软件\MICROSOFT VISUAL STUDIO 10.0\VC\INCLUDE\CRTWRN.H
D:\软件\MICROSOFT VISUAL STUDIO 10.0\VC\INCLUDE\XTR1COMMON
D:\软件\MICROSOFT VISUAL STUDIO 10.0\VC\INCLUDE\XFWRAP
D:\软件\MICROSOFT VISUAL STUDIO 10.0\VC\INCLUDE\XFWRAP1
D:\软件\MICROSOFT VISUAL STUDIO 10.0\VC\INCLUDE\XXTYPE_TRAITS
D:\软件\MICROSOFT VISUAL STUDIO 10.0\VC\INCLUDE\TYPEINFO
D:\软件\MICROSOFT VISUAL STUDIO 10.0\VC\INCLUDE\XLOCINFO
D:\软件\MICROSOFT VISUAL STUDIO 10.0\VC\INCLUDE\XLOCINFO.H
D:\软件\MICROSOFT VISUAL STUDIO 10.0\VC\INCLUDE\CTYPE.H
D:\软件\MICROSOFT VISUAL STUDIO 10.0\VC\INCLUDE\LOCALE.H
D:\软件\MICROSOFT VISUAL STUDIO 10.0\VC\INCLUDE\XDEBUG
D:\软件\MICROSOFT VISUAL STUDIO 10.0\VC\INCLUDE\SYSTEM_ERROR
D:\软件\MICROSOFT VISUAL STUDIO 10.0\VC\INCLUDE\CERRNO
D:\软件\MICROSOFT VISUAL STUDIO 10.0\VC\INCLUDE\ERRNO.H
D:\软件\MICROSOFT VISUAL STUDIO 10.0\VC\INCLUDE\SHARE.H
D:\软件\MICROSOFT VISUAL STUDIO 10.0\VC\INCLUDE\STRING
C:\USERS\VANCE\DOCUMENTS\VISUAL STUDIO 2010\PROJECTS\ASSIGNMENT2\ASSIGNMENT2\LIST.H
C:\USERS\VANCE\DOCUMENTS\VISUAL STUDIO 2010\PROJECTS\ASSIGNMENT2\ASSIGNMENT2\CONNECTION.H
^C:\USERS\VANCE\DOCUMENTS\VISUAL STUDIO 2010\PROJECTS\ASSIGNMENT2\ASSIGNMENT2\MAP.CPP
D:\软件\MICROSOFT VISUAL STUDIO 10.0\VC\INCLUDE\STRING
D:\软件\MICROSOFT VISUAL STUDIO 10.0\VC\INCLUDE\ISTREAM
D:\软件\MICROSOFT VISUAL STUDIO 10.0\VC\INCLUDE\OSTREAM
D:\软件\MICROSOFT VISUAL STUDIO 10.0\VC\INCLUDE\IOS
D:\软件\MICROSOFT VISUAL STUDIO 10.0\VC\INCLUDE\XLOCNUM
D:\软件\MICROSOFT VISUAL STUDIO 10.0\VC\INCLUDE\CLIMITS
D:\软件\MICROSOFT VISUAL STUDIO 10.0\VC\INCLUDE\YVALS.H
D:\软件\MICROSOFT VISUAL STUDIO 10.0\VC\INCLUDE\CRTDEFS.H
D:\软件\MICROSOFT VISUAL STUDIO 10.0\VC\INCLUDE\SAL.H
D:\软件\MICROSOFT VISUAL STUDIO 10.0\VC\INCLUDE\CODEANALYSIS\SOURCEANNOTATIONS.H
D:\软件\MICROSOFT VISUAL STUDIO 10.0\VC\INCLUDE\VADEFS.H
D:\软件\MICROSOFT VISUAL STUDIO 10.0\VC\INCLUDE\USE_ANSI.H
D:\软件\MICROSOFT VISUAL STUDIO 10.0\VC\INCLUDE\LIMITS.H
D:\软件\MICROSOFT VISUAL STUDIO 10.0\VC\INCLUDE\CMATH
D:\软件\MICROSOFT VISUAL STUDIO 10.0\VC\INCLUDE\MATH.H
D:\软件\MICROSOFT VISUAL STUDIO 10.0\VC\INCLUDE\CSTDIO
D:\软件\MICROSOFT VISUAL STUDIO 10.0\VC\INCLUDE\STDIO.H
D:\软件\MICROSOFT VISUAL STUDIO 10.0\VC\INCLUDE\SWPRINTF.INL
D:\软件\MICROSOFT VISUAL STUDIO 10.0\VC\INCLUDE\CSTDLIB
D:\软件\MICROSOFT VISUAL STUDIO 10.0\VC\INCLUDE\STDLIB.H
D:\软件\MICROSOFT VISUAL STUDIO 10.0\VC\INCLUDE\STREAMBUF
D:\软件\MICROSOFT VISUAL STUDIO 10.0\VC\INCLUDE\XIOSBASE
D:\软件\MICROSOFT VISUAL STUDIO 10.0\VC\INCLUDE\XLOCALE
D:\软件\MICROSOFT VISUAL STUDIO 10.0\VC\INCLUDE\CSTRING
D:\软件\MICROSOFT VISUAL STUDIO 10.0\VC\INCLUDE\STRING.H
D:\软件\MICROSOFT VISUAL STUDIO 10.0\VC\INCLUDE\STDEXCEPT
D:\软件\MICROSOFT VISUAL STUDIO 10.0\VC\INCLUDE\EXCEPTION
D:\软件\MICROSOFT VISUAL STUDIO 10.0\VC\INCLUDE\XSTDDEF
D:\软件\MICROSOFT VISUAL STUDIO 10.0\VC\INCLUDE\CSTDDEF
D:\软件\MICROSOFT VISUAL STUDIO 10.0\VC\INCLUDE\STDDEF.H
D:\软件\MICROSOFT VISUAL STUDIO 10.0\VC\INCLUDE\EH.H
D:\软件\MICROSOFT VISUAL STUDIO 10.0\VC\INCLUDE\MALLOC.H
D:\软件\MICROSOFT VISUAL STUDIO 10.0\VC\INCLUDE\XSTRING
D:\软件\MICROSOFT VISUAL STUDIO 10.0\VC\INCLUDE\XMEMORY
D:\软件\MICROSOFT VISUAL STUDIO 10.0\VC\INCLUDE\NEW
D:\软件\MICROSOFT VISUAL STUDIO 10.0\VC\INCLUDE\XUTILITY
D:\软件\MICROSOFT VISUAL STUDIO 10.0\VC\INCLUDE\UTILITY
D:\软件\MICROSOFT VISUAL STUDIO 10.0\VC\INCLUDE\IOSFWD
D:\软件\MICROSOFT VISUAL STUDIO 10.0\VC\INCLUDE\CWCHAR
D:\软件\MICROSOFT VISUAL STUDIO 10.0\VC\INCLUDE\WCHAR.H
D:\软件\MICROSOFT VISUAL STUDIO 10.0\VC\INCLUDE\WTIME.INL
D:\软件\MICROSOFT VISUAL STUDIO 10.0\VC\INCLUDE\CRTDBG.H
D:\软件\MICROSOFT VISUAL STUDIO 10.0\VC\INCLUDE\TYPE_TRAITS
D:\软件\MICROSOFT VISUAL STUDIO 10.0\VC\INCLUDE\LIMITS
D:\软件\MICROSOFT VISUAL STUDIO 10.0\VC\INCLUDE\YMATH.H
D:\软件\MICROSOFT VISUAL STUDIO 10.0\VC\INCLUDE\CFLOAT
D:\软件\MICROSOFT VISUAL STUDIO 10.0\VC\INCLUDE\FLOAT.H
D:\软件\MICROSOFT VISUAL STUDIO 10.0\VC\INCLUDE\CRTWRN.H
D:\软件\MICROSOFT VISUAL STUDIO 10.0\VC\INCLUDE\XTR1COMMON
D:\软件\MICROSOFT VISUAL STUDIO 10.0\VC\INCLUDE\XFWRAP
D:\软件\MICROSOFT VISUAL STUDIO 10.0\VC\INCLUDE\XFWRAP1
D:\软件\MICROSOFT VISUAL STUDIO 10.0\VC\INCLUDE\XXTYPE_TRAITS
D:\软件\MICROSOFT VISUAL STUDIO 10.0\VC\INCLUDE\TYPEINFO
D:\软件\MICROSOFT VISUAL STUDIO 10.0\VC\INCLUDE\XLOCINFO
D:\软件\MICROSOFT VISUAL STUDIO 10.0\VC\INCLUDE\XLOCINFO.H
D:\软件\MICROSOFT VISUAL STUDIO 10.0\VC\INCLUDE\CTYPE.H
D:\软件\MICROSOFT VISUAL STUDIO 10.0\VC\INCLUDE\LOCALE.H
D:\软件\MICROSOFT VISUAL STUDIO 10.0\VC\INCLUDE\XDEBUG
D:\软件\MICROSOFT VISUAL STUDIO 10.0\VC\INCLUDE\SYSTEM_ERROR
D:\软件\MICROSOFT VISUAL STUDIO 10.0\VC\INCLUDE\CERRNO
D:\软件\MICROSOFT VISUAL STUDIO 10.0\VC\INCLUDE\ERRNO.H
D:\软件\MICROSOFT VISUAL STUDIO 10.0\VC\INCLUDE\SHARE.H
D:\软件\MICROSOFT VISUAL STUDIO 10.0\VC\INCLUDE\IOSTREAM
C:\USERS\VANCE\DOCUMENTS\VISUAL STUDIO 2010\PROJECTS\ASSIGNMENT2\ASSIGNMENT2\MAP.H
C:\USERS\VANCE\DOCUMENTS\VISUAL STUDIO 2010\PROJECTS\ASSIGNMENT2\ASSIGNMENT2\TOWN.H
C:\USERS\VANCE\DOCUMENTS\VISUAL STUDIO 2010\PROJECTS\ASSIGNMENT2\ASSIGNMENT2\LIST.H
C:\USERS\VANCE\DOCUMENTS\VISUAL STUDIO 2010\PROJECTS\ASSIGNMENT2\ASSIGNMENT2\CONNECTION.H
D:\软件\MICROSOFT VISUAL STUDIO 10.0\VC\BIN\2052\CLUI.DLL
C:\WINDOWS\GLOBALIZATION\SORTING\SORTDEFAULT.NLS
C:\WINDOWS\SYSTEM32\RSAENH.DLL
C:\WINDOWS\SYSTEM32\TZRES.DLL
D:\软件\MICROSOFT VISUAL STUDIO 10.0\COMMON7\IDE\MSPDBSRV.EXE
D:\软件\MICROSOFT VISUAL STUDIO 10.0\VC\INCLUDE\FSTREAM
^C:\USERS\VANCE\DOCUMENTS\VISUAL STUDIO 2010\PROJECTS\ASSIGNMENT2\ASSIGNMENT2\LIST.CPP
D:\软件\MICROSOFT VISUAL STUDIO 10.0\VC\INCLUDE\IOSTREAM
D:\软件\MICROSOFT VISUAL STUDIO 10.0\VC\INCLUDE\ISTREAM
D:\软件\MICROSOFT VISUAL STUDIO 10.0\VC\INCLUDE\OSTREAM
D:\软件\MICROSOFT VISUAL STUDIO 10.0\VC\INCLUDE\IOS
D:\软件\MICROSOFT VISUAL STUDIO 10.0\VC\INCLUDE\XLOCNUM
D:\软件\MICROSOFT VISUAL STUDIO 10.0\VC\INCLUDE\CLIMITS
D:\软件\MICROSOFT VISUAL STUDIO 10.0\VC\INCLUDE\YVALS.H
D:\软件\MICROSOFT VISUAL STUDIO 10.0\VC\INCLUDE\CRTDEFS.H
D:\软件\MICROSOFT VISUAL STUDIO 10.0\VC\INCLUDE\SAL.H
D:\软件\MICROSOFT VISUAL STUDIO 10.0\VC\INCLUDE\CODEANALYSIS\SOURCEANNOTATIONS.H
D:\软件\MICROSOFT VISUAL STUDIO 10.0\VC\INCLUDE\VADEFS.H
D:\软件\MICROSOFT VISUAL STUDIO 10.0\VC\INCLUDE\USE_ANSI.H
D:\软件\MICROSOFT VISUAL STUDIO 10.0\VC\INCLUDE\LIMITS.H
D:\软件\MICROSOFT VISUAL STUDIO 10.0\VC\INCLUDE\CMATH
D:\软件\MICROSOFT VISUAL STUDIO 10.0\VC\INCLUDE\MATH.H
D:\软件\MICROSOFT VISUAL STUDIO 10.0\VC\INCLUDE\CSTDIO
D:\软件\MICROSOFT VISUAL STUDIO 10.0\VC\INCLUDE\STDIO.H
D:\软件\MICROSOFT VISUAL STUDIO 10.0\VC\INCLUDE\SWPRINTF.INL
D:\软件\MICROSOFT VISUAL STUDIO 10.0\VC\INCLUDE\CSTDLIB
D:\软件\MICROSOFT VISUAL STUDIO 10.0\VC\INCLUDE\STDLIB.H
D:\软件\MICROSOFT VISUAL STUDIO 10.0\VC\INCLUDE\STREAMBUF
D:\软件\MICROSOFT VISUAL STUDIO 10.0\VC\INCLUDE\XIOSBASE
D:\软件\MICROSOFT VISUAL STUDIO 10.0\VC\INCLUDE\XLOCALE
D:\软件\MICROSOFT VISUAL STUDIO 10.0\VC\INCLUDE\CSTRING
D:\软件\MICROSOFT VISUAL STUDIO 10.0\VC\INCLUDE\STRING.H
D:\软件\MICROSOFT VISUAL STUDIO 10.0\VC\INCLUDE\STDEXCEPT
D:\软件\MICROSOFT VISUAL STUDIO 10.0\VC\INCLUDE\EXCEPTION
D:\软件\MICROSOFT VISUAL STUDIO 10.0\VC\INCLUDE\XSTDDEF
D:\软件\MICROSOFT VISUAL STUDIO 10.0\VC\INCLUDE\CSTDDEF
D:\软件\MICROSOFT VISUAL STUDIO 10.0\VC\INCLUDE\STDDEF.H
D:\软件\MICROSOFT VISUAL STUDIO 10.0\VC\INCLUDE\EH.H
D:\软件\MICROSOFT VISUAL STUDIO 10.0\VC\INCLUDE\MALLOC.H
D:\软件\MICROSOFT VISUAL STUDIO 10.0\VC\INCLUDE\XSTRING
D:\软件\MICROSOFT VISUAL STUDIO 10.0\VC\INCLUDE\XMEMORY
D:\软件\MICROSOFT VISUAL STUDIO 10.0\VC\INCLUDE\NEW
D:\软件\MICROSOFT VISUAL STUDIO 10.0\VC\INCLUDE\XUTILITY
D:\软件\MICROSOFT VISUAL STUDIO 10.0\VC\INCLUDE\UTILITY
D:\软件\MICROSOFT VISUAL STUDIO 10.0\VC\INCLUDE\IOSFWD
D:\软件\MICROSOFT VISUAL STUDIO 10.0\VC\INCLUDE\CWCHAR
D:\软件\MICROSOFT VISUAL STUDIO 10.0\VC\INCLUDE\WCHAR.H
D:\软件\MICROSOFT VISUAL STUDIO 10.0\VC\INCLUDE\WTIME.INL
D:\软件\MICROSOFT VISUAL STUDIO 10.0\VC\INCLUDE\CRTDBG.H
D:\软件\MICROSOFT VISUAL STUDIO 10.0\VC\INCLUDE\TYPE_TRAITS
D:\软件\MICROSOFT VISUAL STUDIO 10.0\VC\INCLUDE\LIMITS
D:\软件\MICROSOFT VISUAL STUDIO 10.0\VC\INCLUDE\YMATH.H
D:\软件\MICROSOFT VISUAL STUDIO 10.0\VC\INCLUDE\CFLOAT
D:\软件\MICROSOFT VISUAL STUDIO 10.0\VC\INCLUDE\FLOAT.H
D:\软件\MICROSOFT VISUAL STUDIO 10.0\VC\INCLUDE\CRTWRN.H
D:\软件\MICROSOFT VISUAL STUDIO 10.0\VC\INCLUDE\XTR1COMMON
D:\软件\MICROSOFT VISUAL STUDIO 10.0\VC\INCLUDE\XFWRAP
D:\软件\MICROSOFT VISUAL STUDIO 10.0\VC\INCLUDE\XFWRAP1
D:\软件\MICROSOFT VISUAL STUDIO 10.0\VC\INCLUDE\XXTYPE_TRAITS
D:\软件\MICROSOFT VISUAL STUDIO 10.0\VC\INCLUDE\TYPEINFO
D:\软件\MICROSOFT VISUAL STUDIO 10.0\VC\INCLUDE\XLOCINFO
D:\软件\MICROSOFT VISUAL STUDIO 10.0\VC\INCLUDE\XLOCINFO.H
D:\软件\MICROSOFT VISUAL STUDIO 10.0\VC\INCLUDE\CTYPE.H
D:\软件\MICROSOFT VISUAL STUDIO 10.0\VC\INCLUDE\LOCALE.H
D:\软件\MICROSOFT VISUAL STUDIO 10.0\VC\INCLUDE\XDEBUG
D:\软件\MICROSOFT VISUAL STUDIO 10.0\VC\INCLUDE\SYSTEM_ERROR
D:\软件\MICROSOFT VISUAL STUDIO 10.0\VC\INCLUDE\CERRNO
D:\软件\MICROSOFT VISUAL STUDIO 10.0\VC\INCLUDE\ERRNO.H
D:\软件\MICROSOFT VISUAL STUDIO 10.0\VC\INCLUDE\SHARE.H
C:\USERS\VANCE\DOCUMENTS\VISUAL STUDIO 2010\PROJECTS\ASSIGNMENT2\ASSIGNMENT2\LIST.H
C:\USERS\VANCE\DOCUMENTS\VISUAL STUDIO 2010\PROJECTS\ASSIGNMENT2\ASSIGNMENT2\CONNECTION.H
D:\软件\MICROSOFT VISUAL STUDIO 10.0\VC\BIN\2052\CLUI.DLL
C:\WINDOWS\GLOBALIZATION\SORTING\SORTDEFAULT.NLS
C:\WINDOWS\SYSTEM32\RSAENH.DLL
C:\WINDOWS\SYSTEM32\TZRES.DLL
D:\软件\MICROSOFT VISUAL STUDIO 10.0\COMMON7\IDE\MSPDBSRV.EXE
^C:\USERS\VANCE\DOCUMENTS\VISUAL STUDIO 2010\PROJECTS\ASSIGNMENT2\ASSIGNMENT2\DIJKSTRA.CPP
D:\软件\MICROSOFT VISUAL STUDIO 10.0\VC\INCLUDE\STRING
D:\软件\MICROSOFT VISUAL STUDIO 10.0\VC\INCLUDE\ISTREAM
D:\软件\MICROSOFT VISUAL STUDIO 10.0\VC\INCLUDE\OSTREAM
D:\软件\MICROSOFT VISUAL STUDIO 10.0\VC\INCLUDE\IOS
D:\软件\MICROSOFT VISUAL STUDIO 10.0\VC\INCLUDE\XLOCNUM
D:\软件\MICROSOFT VISUAL STUDIO 10.0\VC\INCLUDE\CLIMITS
D:\软件\MICROSOFT VISUAL STUDIO 10.0\VC\INCLUDE\YVALS.H
D:\软件\MICROSOFT VISUAL STUDIO 10.0\VC\INCLUDE\CRTDEFS.H
D:\软件\MICROSOFT VISUAL STUDIO 10.0\VC\INCLUDE\SAL.H
D:\软件\MICROSOFT VISUAL STUDIO 10.0\VC\INCLUDE\CODEANALYSIS\SOURCEANNOTATIONS.H
D:\软件\MICROSOFT VISUAL STUDIO 10.0\VC\INCLUDE\VADEFS.H
D:\软件\MICROSOFT VISUAL STUDIO 10.0\VC\INCLUDE\USE_ANSI.H
D:\软件\MICROSOFT VISUAL STUDIO 10.0\VC\INCLUDE\LIMITS.H
D:\软件\MICROSOFT VISUAL STUDIO 10.0\VC\INCLUDE\CMATH
D:\软件\MICROSOFT VISUAL STUDIO 10.0\VC\INCLUDE\MATH.H
D:\软件\MICROSOFT VISUAL STUDIO 10.0\VC\INCLUDE\CSTDIO
D:\软件\MICROSOFT VISUAL STUDIO 10.0\VC\INCLUDE\STDIO.H
D:\软件\MICROSOFT VISUAL STUDIO 10.0\VC\INCLUDE\SWPRINTF.INL
D:\软件\MICROSOFT VISUAL STUDIO 10.0\VC\INCLUDE\CSTDLIB
D:\软件\MICROSOFT VISUAL STUDIO 10.0\VC\INCLUDE\STDLIB.H
D:\软件\MICROSOFT VISUAL STUDIO 10.0\VC\INCLUDE\STREAMBUF
D:\软件\MICROSOFT VISUAL STUDIO 10.0\VC\INCLUDE\XIOSBASE
D:\软件\MICROSOFT VISUAL STUDIO 10.0\VC\INCLUDE\XLOCALE
D:\软件\MICROSOFT VISUAL STUDIO 10.0\VC\INCLUDE\CSTRING
D:\软件\MICROSOFT VISUAL STUDIO 10.0\VC\INCLUDE\STRING.H
D:\软件\MICROSOFT VISUAL STUDIO 10.0\VC\INCLUDE\STDEXCEPT
D:\软件\MICROSOFT VISUAL STUDIO 10.0\VC\INCLUDE\EXCEPTION
D:\软件\MICROSOFT VISUAL STUDIO 10.0\VC\INCLUDE\XSTDDEF
D:\软件\MICROSOFT VISUAL STUDIO 10.0\VC\INCLUDE\CSTDDEF
D:\软件\MICROSOFT VISUAL STUDIO 10.0\VC\INCLUDE\STDDEF.H
D:\软件\MICROSOFT VISUAL STUDIO 10.0\VC\INCLUDE\EH.H
D:\软件\MICROSOFT VISUAL STUDIO 10.0\VC\INCLUDE\MALLOC.H
D:\软件\MICROSOFT VISUAL STUDIO 10.0\VC\INCLUDE\XSTRING
D:\软件\MICROSOFT VISUAL STUDIO 10.0\VC\INCLUDE\XMEMORY
D:\软件\MICROSOFT VISUAL STUDIO 10.0\VC\INCLUDE\NEW
D:\软件\MICROSOFT VISUAL STUDIO 10.0\VC\INCLUDE\XUTILITY
D:\软件\MICROSOFT VISUAL STUDIO 10.0\VC\INCLUDE\UTILITY
D:\软件\MICROSOFT VISUAL STUDIO 10.0\VC\INCLUDE\IOSFWD
D:\软件\MICROSOFT VISUAL STUDIO 10.0\VC\INCLUDE\CWCHAR
D:\软件\MICROSOFT VISUAL STUDIO 10.0\VC\INCLUDE\WCHAR.H
D:\软件\MICROSOFT VISUAL STUDIO 10.0\VC\INCLUDE\WTIME.INL
D:\软件\MICROSOFT VISUAL STUDIO 10.0\VC\INCLUDE\CRTDBG.H
D:\软件\MICROSOFT VISUAL STUDIO 10.0\VC\INCLUDE\TYPE_TRAITS
D:\软件\MICROSOFT VISUAL STUDIO 10.0\VC\INCLUDE\LIMITS
D:\软件\MICROSOFT VISUAL STUDIO 10.0\VC\INCLUDE\YMATH.H
D:\软件\MICROSOFT VISUAL STUDIO 10.0\VC\INCLUDE\CFLOAT
D:\软件\MICROSOFT VISUAL STUDIO 10.0\VC\INCLUDE\FLOAT.H
D:\软件\MICROSOFT VISUAL STUDIO 10.0\VC\INCLUDE\CRTWRN.H
D:\软件\MICROSOFT VISUAL STUDIO 10.0\VC\INCLUDE\XTR1COMMON
D:\软件\MICROSOFT VISUAL STUDIO 10.0\VC\INCLUDE\XFWRAP
D:\软件\MICROSOFT VISUAL STUDIO 10.0\VC\INCLUDE\XFWRAP1
D:\软件\MICROSOFT VISUAL STUDIO 10.0\VC\INCLUDE\XXTYPE_TRAITS
D:\软件\MICROSOFT VISUAL STUDIO 10.0\VC\INCLUDE\TYPEINFO
D:\软件\MICROSOFT VISUAL STUDIO 10.0\VC\INCLUDE\XLOCINFO
D:\软件\MICROSOFT VISUAL STUDIO 10.0\VC\INCLUDE\XLOCINFO.H
D:\软件\MICROSOFT VISUAL STUDIO 10.0\VC\INCLUDE\CTYPE.H
D:\软件\MICROSOFT VISUAL STUDIO 10.0\VC\INCLUDE\LOCALE.H
D:\软件\MICROSOFT VISUAL STUDIO 10.0\VC\INCLUDE\XDEBUG
D:\软件\MICROSOFT VISUAL STUDIO 10.0\VC\INCLUDE\SYSTEM_ERROR
D:\软件\MICROSOFT VISUAL STUDIO 10.0\VC\INCLUDE\CERRNO
D:\软件\MICROSOFT VISUAL STUDIO 10.0\VC\INCLUDE\ERRNO.H
D:\软件\MICROSOFT VISUAL STUDIO 10.0\VC\INCLUDE\SHARE.H
C:\USERS\VANCE\DOCUMENTS\VISUAL STUDIO 2010\PROJECTS\ASSIGNMENT2\ASSIGNMENT2\DIJKSTRA.H
C:\USERS\VANCE\DOCUMENTS\VISUAL STUDIO 2010\PROJECTS\ASSIGNMENT2\ASSIGNMENT2\MAP.H
C:\USERS\VANCE\DOCUMENTS\VISUAL STUDIO 2010\PROJECTS\ASSIGNMENT2\ASSIGNMENT2\TOWN.H
D:\软件\MICROSOFT VISUAL STUDIO 10.0\VC\INCLUDE\IOSTREAM
C:\USERS\VANCE\DOCUMENTS\VISUAL STUDIO 2010\PROJECTS\ASSIGNMENT2\ASSIGNMENT2\LIST.H
C:\USERS\VANCE\DOCUMENTS\VISUAL STUDIO 2010\PROJECTS\ASSIGNMENT2\ASSIGNMENT2\CONNECTION.H
D:\软件\MICROSOFT VISUAL STUDIO 10.0\VC\BIN\2052\CLUI.DLL
C:\WINDOWS\GLOBALIZATION\SORTING\SORTDEFAULT.NLS
C:\WINDOWS\SYSTEM32\RSAENH.DLL
C:\WINDOWS\SYSTEM32\TZRES.DLL
D:\软件\MICROSOFT VISUAL STUDIO 10.0\COMMON7\IDE\MSPDBSRV.EXE
^C:\USERS\VANCE\DOCUMENTS\VISUAL STUDIO 2010\PROJECTS\ASSIGNMENT2\ASSIGNMENT2\CONNECTION.CPP
D:\软件\MICROSOFT VISUAL STUDIO 10.0\VC\INCLUDE\IOSTREAM
D:\软件\MICROSOFT VISUAL STUDIO 10.0\VC\INCLUDE\ISTREAM
D:\软件\MICROSOFT VISUAL STUDIO 10.0\VC\INCLUDE\OSTREAM
D:\软件\MICROSOFT VISUAL STUDIO 10.0\VC\INCLUDE\IOS
D:\软件\MICROSOFT VISUAL STUDIO 10.0\VC\INCLUDE\XLOCNUM
D:\软件\MICROSOFT VISUAL STUDIO 10.0\VC\INCLUDE\CLIMITS
D:\软件\MICROSOFT VISUAL STUDIO 10.0\VC\INCLUDE\YVALS.H
D:\软件\MICROSOFT VISUAL STUDIO 10.0\VC\INCLUDE\CRTDEFS.H
D:\软件\MICROSOFT VISUAL STUDIO 10.0\VC\INCLUDE\SAL.H
D:\软件\MICROSOFT VISUAL STUDIO 10.0\VC\INCLUDE\CODEANALYSIS\SOURCEANNOTATIONS.H
D:\软件\MICROSOFT VISUAL STUDIO 10.0\VC\INCLUDE\VADEFS.H
D:\软件\MICROSOFT VISUAL STUDIO 10.0\VC\INCLUDE\USE_ANSI.H
D:\软件\MICROSOFT VISUAL STUDIO 10.0\VC\INCLUDE\LIMITS.H
D:\软件\MICROSOFT VISUAL STUDIO 10.0\VC\INCLUDE\CMATH
D:\软件\MICROSOFT VISUAL STUDIO 10.0\VC\INCLUDE\MATH.H
D:\软件\MICROSOFT VISUAL STUDIO 10.0\VC\INCLUDE\CSTDIO
D:\软件\MICROSOFT VISUAL STUDIO 10.0\VC\INCLUDE\STDIO.H
D:\软件\MICROSOFT VISUAL STUDIO 10.0\VC\INCLUDE\SWPRINTF.INL
D:\软件\MICROSOFT VISUAL STUDIO 10.0\VC\INCLUDE\CSTDLIB
D:\软件\MICROSOFT VISUAL STUDIO 10.0\VC\INCLUDE\STDLIB.H
D:\软件\MICROSOFT VISUAL STUDIO 10.0\VC\INCLUDE\STREAMBUF
D:\软件\MICROSOFT VISUAL STUDIO 10.0\VC\INCLUDE\XIOSBASE
D:\软件\MICROSOFT VISUAL STUDIO 10.0\VC\INCLUDE\XLOCALE
D:\软件\MICROSOFT VISUAL STUDIO 10.0\VC\INCLUDE\CSTRING
D:\软件\MICROSOFT VISUAL STUDIO 10.0\VC\INCLUDE\STRING.H
D:\软件\MICROSOFT VISUAL STUDIO 10.0\VC\INCLUDE\STDEXCEPT
D:\软件\MICROSOFT VISUAL STUDIO 10.0\VC\INCLUDE\EXCEPTION
D:\软件\MICROSOFT VISUAL STUDIO 10.0\VC\INCLUDE\XSTDDEF
D:\软件\MICROSOFT VISUAL STUDIO 10.0\VC\INCLUDE\CSTDDEF
D:\软件\MICROSOFT VISUAL STUDIO 10.0\VC\INCLUDE\STDDEF.H
D:\软件\MICROSOFT VISUAL STUDIO 10.0\VC\INCLUDE\EH.H
D:\软件\MICROSOFT VISUAL STUDIO 10.0\VC\INCLUDE\MALLOC.H
D:\软件\MICROSOFT VISUAL STUDIO 10.0\VC\INCLUDE\XSTRING
D:\软件\MICROSOFT VISUAL STUDIO 10.0\VC\INCLUDE\XMEMORY
D:\软件\MICROSOFT VISUAL STUDIO 10.0\VC\INCLUDE\NEW
D:\软件\MICROSOFT VISUAL STUDIO 10.0\VC\INCLUDE\XUTILITY
D:\软件\MICROSOFT VISUAL STUDIO 10.0\VC\INCLUDE\UTILITY
D:\软件\MICROSOFT VISUAL STUDIO 10.0\VC\INCLUDE\IOSFWD
D:\软件\MICROSOFT VISUAL STUDIO 10.0\VC\INCLUDE\CWCHAR
D:\软件\MICROSOFT VISUAL STUDIO 10.0\VC\INCLUDE\WCHAR.H
D:\软件\MICROSOFT VISUAL STUDIO 10.0\VC\INCLUDE\WTIME.INL
D:\软件\MICROSOFT VISUAL STUDIO 10.0\VC\INCLUDE\CRTDBG.H
D:\软件\MICROSOFT VISUAL STUDIO 10.0\VC\INCLUDE\TYPE_TRAITS
D:\软件\MICROSOFT VISUAL STUDIO 10.0\VC\INCLUDE\LIMITS
D:\软件\MICROSOFT VISUAL STUDIO 10.0\VC\INCLUDE\YMATH.H
D:\软件\MICROSOFT VISUAL STUDIO 10.0\VC\INCLUDE\CFLOAT
D:\软件\MICROSOFT VISUAL STUDIO 10.0\VC\INCLUDE\FLOAT.H
D:\软件\MICROSOFT VISUAL STUDIO 10.0\VC\INCLUDE\CRTWRN.H
D:\软件\MICROSOFT VISUAL STUDIO 10.0\VC\INCLUDE\XTR1COMMON
D:\软件\MICROSOFT VISUAL STUDIO 10.0\VC\INCLUDE\XFWRAP
D:\软件\MICROSOFT VISUAL STUDIO 10.0\VC\INCLUDE\XFWRAP1
D:\软件\MICROSOFT VISUAL STUDIO 10.0\VC\INCLUDE\XXTYPE_TRAITS
D:\软件\MICROSOFT VISUAL STUDIO 10.0\VC\INCLUDE\TYPEINFO
D:\软件\MICROSOFT VISUAL STUDIO 10.0\VC\INCLUDE\XLOCINFO
D:\软件\MICROSOFT VISUAL STUDIO 10.0\VC\INCLUDE\XLOCINFO.H
D:\软件\MICROSOFT VISUAL STUDIO 10.0\VC\INCLUDE\CTYPE.H
D:\软件\MICROSOFT VISUAL STUDIO 10.0\VC\INCLUDE\LOCALE.H
D:\软件\MICROSOFT VISUAL STUDIO 10.0\VC\INCLUDE\XDEBUG
D:\软件\MICROSOFT VISUAL STUDIO 10.0\VC\INCLUDE\SYSTEM_ERROR
D:\软件\MICROSOFT VISUAL STUDIO 10.0\VC\INCLUDE\CERRNO
D:\软件\MICROSOFT VISUAL STUDIO 10.0\VC\INCLUDE\ERRNO.H
D:\软件\MICROSOFT VISUAL STUDIO 10.0\VC\INCLUDE\SHARE.H
D:\软件\MICROSOFT VISUAL STUDIO 10.0\VC\INCLUDE\STRING
C:\USERS\VANCE\DOCUMENTS\VISUAL STUDIO 2010\PROJECTS\ASSIGNMENT2\ASSIGNMENT2\CONNECTION.H
^C:\USERS\VANCE\DOCUMENTS\VISUAL STUDIO 2010\PROJECTS\ASSIGNMENT2\ASSIGNMENT2\ASSIGNMENT2.CPP
D:\软件\MICROSOFT VISUAL STUDIO 10.0\VC\INCLUDE\IOSTREAM
D:\软件\MICROSOFT VISUAL STUDIO 10.0\VC\INCLUDE\ISTREAM
D:\软件\MICROSOFT VISUAL STUDIO 10.0\VC\INCLUDE\OSTREAM
D:\软件\MICROSOFT VISUAL STUDIO 10.0\VC\INCLUDE\IOS
D:\软件\MICROSOFT VISUAL STUDIO 10.0\VC\INCLUDE\XLOCNUM
D:\软件\MICROSOFT VISUAL STUDIO 10.0\VC\INCLUDE\CLIMITS
D:\软件\MICROSOFT VISUAL STUDIO 10.0\VC\INCLUDE\YVALS.H
D:\软件\MICROSOFT VISUAL STUDIO 10.0\VC\INCLUDE\CRTDEFS.H
D:\软件\MICROSOFT VISUAL STUDIO 10.0\VC\INCLUDE\SAL.H
D:\软件\MICROSOFT VISUAL STUDIO 10.0\VC\INCLUDE\CODEANALYSIS\SOURCEANNOTATIONS.H
D:\软件\MICROSOFT VISUAL STUDIO 10.0\VC\INCLUDE\VADEFS.H
D:\软件\MICROSOFT VISUAL STUDIO 10.0\VC\INCLUDE\USE_ANSI.H
D:\软件\MICROSOFT VISUAL STUDIO 10.0\VC\INCLUDE\LIMITS.H
D:\软件\MICROSOFT VISUAL STUDIO 10.0\VC\INCLUDE\CMATH
D:\软件\MICROSOFT VISUAL STUDIO 10.0\VC\INCLUDE\MATH.H
D:\软件\MICROSOFT VISUAL STUDIO 10.0\VC\INCLUDE\CSTDIO
D:\软件\MICROSOFT VISUAL STUDIO 10.0\VC\INCLUDE\STDIO.H
D:\软件\MICROSOFT VISUAL STUDIO 10.0\VC\INCLUDE\SWPRINTF.INL
D:\软件\MICROSOFT VISUAL STUDIO 10.0\VC\INCLUDE\CSTDLIB
D:\软件\MICROSOFT VISUAL STUDIO 10.0\VC\INCLUDE\STDLIB.H
D:\软件\MICROSOFT VISUAL STUDIO 10.0\VC\INCLUDE\STREAMBUF
D:\软件\MICROSOFT VISUAL STUDIO 10.0\VC\INCLUDE\XIOSBASE
D:\软件\MICROSOFT VISUAL STUDIO 10.0\VC\INCLUDE\XLOCALE
D:\软件\MICROSOFT VISUAL STUDIO 10.0\VC\INCLUDE\CSTRING
D:\软件\MICROSOFT VISUAL STUDIO 10.0\VC\INCLUDE\STRING.H
D:\软件\MICROSOFT VISUAL STUDIO 10.0\VC\INCLUDE\STDEXCEPT
D:\软件\MICROSOFT VISUAL STUDIO 10.0\VC\INCLUDE\EXCEPTION
D:\软件\MICROSOFT VISUAL STUDIO 10.0\VC\INCLUDE\XSTDDEF
D:\软件\MICROSOFT VISUAL STUDIO 10.0\VC\INCLUDE\CSTDDEF
D:\软件\MICROSOFT VISUAL STUDIO 10.0\VC\INCLUDE\STDDEF.H
D:\软件\MICROSOFT VISUAL STUDIO 10.0\VC\INCLUDE\EH.H
D:\软件\MICROSOFT VISUAL STUDIO 10.0\VC\INCLUDE\MALLOC.H
D:\软件\MICROSOFT VISUAL STUDIO 10.0\VC\INCLUDE\XSTRING
D:\软件\MICROSOFT VISUAL STUDIO 10.0\VC\INCLUDE\XMEMORY
D:\软件\MICROSOFT VISUAL STUDIO 10.0\VC\INCLUDE\NEW
D:\软件\MICROSOFT VISUAL STUDIO 10.0\VC\INCLUDE\XUTILITY
D:\软件\MICROSOFT VISUAL STUDIO 10.0\VC\INCLUDE\UTILITY
D:\软件\MICROSOFT VISUAL STUDIO 10.0\VC\INCLUDE\IOSFWD
D:\软件\MICROSOFT VISUAL STUDIO 10.0\VC\INCLUDE\CWCHAR
D:\软件\MICROSOFT VISUAL STUDIO 10.0\VC\INCLUDE\WCHAR.H
D:\软件\MICROSOFT VISUAL STUDIO 10.0\VC\INCLUDE\WTIME.INL
D:\软件\MICROSOFT VISUAL STUDIO 10.0\VC\INCLUDE\CRTDBG.H
D:\软件\MICROSOFT VISUAL STUDIO 10.0\VC\INCLUDE\TYPE_TRAITS
D:\软件\MICROSOFT VISUAL STUDIO 10.0\VC\INCLUDE\LIMITS
D:\软件\MICROSOFT VISUAL STUDIO 10.0\VC\INCLUDE\YMATH.H
D:\软件\MICROSOFT VISUAL STUDIO 10.0\VC\INCLUDE\CFLOAT
D:\软件\MICROSOFT VISUAL STUDIO 10.0\VC\INCLUDE\FLOAT.H
D:\软件\MICROSOFT VISUAL STUDIO 10.0\VC\INCLUDE\CRTWRN.H
D:\软件\MICROSOFT VISUAL STUDIO 10.0\VC\INCLUDE\XTR1COMMON
D:\软件\MICROSOFT VISUAL STUDIO 10.0\VC\INCLUDE\XFWRAP
D:\软件\MICROSOFT VISUAL STUDIO 10.0\VC\INCLUDE\XFWRAP1
D:\软件\MICROSOFT VISUAL STUDIO 10.0\VC\INCLUDE\XXTYPE_TRAITS
D:\软件\MICROSOFT VISUAL STUDIO 10.0\VC\INCLUDE\TYPEINFO
D:\软件\MICROSOFT VISUAL STUDIO 10.0\VC\INCLUDE\XLOCINFO
D:\软件\MICROSOFT VISUAL STUDIO 10.0\VC\INCLUDE\XLOCINFO.H
D:\软件\MICROSOFT VISUAL STUDIO 10.0\VC\INCLUDE\CTYPE.H
D:\软件\MICROSOFT VISUAL STUDIO 10.0\VC\INCLUDE\LOCALE.H
D:\软件\MICROSOFT VISUAL STUDIO 10.0\VC\INCLUDE\XDEBUG
D:\软件\MICROSOFT VISUAL STUDIO 10.0\VC\INCLUDE\SYSTEM_ERROR
D:\软件\MICROSOFT VISUAL STUDIO 10.0\VC\INCLUDE\CERRNO
D:\软件\MICROSOFT VISUAL STUDIO 10.0\VC\INCLUDE\ERRNO.H
D:\软件\MICROSOFT VISUAL STUDIO 10.0\VC\INCLUDE\SHARE.H
D:\软件\MICROSOFT VISUAL STUDIO 10.0\VC\INCLUDE\STRING
D:\软件\MICROSOFT VISUAL STUDIO 10.0\VC\INCLUDE\FSTREAM
C:\USERS\VANCE\DOCUMENTS\VISUAL STUDIO 2010\PROJECTS\ASSIGNMENT2\ASSIGNMENT2\MAP.H
C:\USERS\VANCE\DOCUMENTS\VISUAL STUDIO 2010\PROJECTS\ASSIGNMENT2\ASSIGNMENT2\DIJKSTRA.H
D:\软件\MICROSOFT VISUAL STUDIO 10.0\VC\BIN\2052\CLUI.DLL
C:\WINDOWS\GLOBALIZATION\SORTING\SORTDEFAULT.NLS
C:\WINDOWS\SYSTEM32\RSAENH.DLL
D:\软件\MICROSOFT VISUAL STUDIO 10.0\COMMON7\IDE\MSPDBSRV.EXE
C:\WINDOWS\SYSTEM32\TZRES.DLL
C:\USERS\VANCE\DOCUMENTS\VISUAL STUDIO 2010\PROJECTS\ASSIGNMENT2\ASSIGNMENT2\TOWN.H
C:\USERS\VANCE\DOCUMENTS\VISUAL STUDIO 2010\PROJECTS\ASSIGNMENT2\ASSIGNMENT2\LIST.H
C:\USERS\VANCE\DOCUMENTS\VISUAL STUDIO 2010\PROJECTS\ASSIGNMENT2\ASSIGNMENT2\CONNECTION.H
^C:\USERS\VANCE\DOCUMENTS\VISUAL STUDIO 2010\PROJECTS\ASS2\TOWN.CPP
C:\USERS\VANCE\DOCUMENTS\VISUAL STUDIO 2010\PROJECTS\ASS2\TOWN.H
D:\软件\MICROSOFT VISUAL STUDIO 10.0\VC\INCLUDE\IOSTREAM
D:\软件\MICROSOFT VISUAL STUDIO 10.0\VC\INCLUDE\ISTREAM
D:\软件\MICROSOFT VISUAL STUDIO 10.0\VC\INCLUDE\OSTREAM
D:\软件\MICROSOFT VISUAL STUDIO 10.0\VC\INCLUDE\IOS
D:\软件\MICROSOFT VISUAL STUDIO 10.0\VC\INCLUDE\XLOCNUM
D:\软件\MICROSOFT VISUAL STUDIO 10.0\VC\INCLUDE\CLIMITS
D:\软件\MICROSOFT VISUAL STUDIO 10.0\VC\INCLUDE\YVALS.H
D:\软件\MICROSOFT VISUAL STUDIO 10.0\VC\INCLUDE\CRTDEFS.H
D:\软件\MICROSOFT VISUAL STUDIO 10.0\VC\INCLUDE\SAL.H
D:\软件\MICROSOFT VISUAL STUDIO 10.0\VC\INCLUDE\CODEANALYSIS\SOURCEANNOTATIONS.H
D:\软件\MICROSOFT VISUAL STUDIO 10.0\VC\INCLUDE\VADEFS.H
D:\软件\MICROSOFT VISUAL STUDIO 10.0\VC\INCLUDE\USE_ANSI.H
D:\软件\MICROSOFT VISUAL STUDIO 10.0\VC\INCLUDE\LIMITS.H
D:\软件\MICROSOFT VISUAL STUDIO 10.0\VC\INCLUDE\CMATH
D:\软件\MICROSOFT VISUAL STUDIO 10.0\VC\INCLUDE\MATH.H
D:\软件\MICROSOFT VISUAL STUDIO 10.0\VC\INCLUDE\CSTDIO
D:\软件\MICROSOFT VISUAL STUDIO 10.0\VC\INCLUDE\STDIO.H
D:\软件\MICROSOFT VISUAL STUDIO 10.0\VC\INCLUDE\SWPRINTF.INL
D:\软件\MICROSOFT VISUAL STUDIO 10.0\VC\INCLUDE\CSTDLIB
D:\软件\MICROSOFT VISUAL STUDIO 10.0\VC\INCLUDE\STDLIB.H
D:\软件\MICROSOFT VISUAL STUDIO 10.0\VC\INCLUDE\STREAMBUF
D:\软件\MICROSOFT VISUAL STUDIO 10.0\VC\INCLUDE\XIOSBASE
D:\软件\MICROSOFT VISUAL STUDIO 10.0\VC\INCLUDE\XLOCALE
D:\软件\MICROSOFT VISUAL STUDIO 10.0\VC\INCLUDE\CSTRING
D:\软件\MICROSOFT VISUAL STUDIO 10.0\VC\INCLUDE\STRING.H
D:\软件\MICROSOFT VISUAL STUDIO 10.0\VC\INCLUDE\STDEXCEPT
D:\软件\MICROSOFT VISUAL STUDIO 10.0\VC\INCLUDE\EXCEPTION
D:\软件\MICROSOFT VISUAL STUDIO 10.0\VC\INCLUDE\XSTDDEF
D:\软件\MICROSOFT VISUAL STUDIO 10.0\VC\INCLUDE\CSTDDEF
D:\软件\MICROSOFT VISUAL STUDIO 10.0\VC\INCLUDE\STDDEF.H
D:\软件\MICROSOFT VISUAL STUDIO 10.0\VC\INCLUDE\EH.H
D:\软件\MICROSOFT VISUAL STUDIO 10.0\VC\INCLUDE\MALLOC.H
D:\软件\MICROSOFT VISUAL STUDIO 10.0\VC\INCLUDE\XSTRING
D:\软件\MICROSOFT VISUAL STUDIO 10.0\VC\INCLUDE\XMEMORY
D:\软件\MICROSOFT VISUAL STUDIO 10.0\VC\INCLUDE\NEW
D:\软件\MICROSOFT VISUAL STUDIO 10.0\VC\INCLUDE\XUTILITY
D:\软件\MICROSOFT VISUAL STUDIO 10.0\VC\INCLUDE\UTILITY
D:\软件\MICROSOFT VISUAL STUDIO 10.0\VC\INCLUDE\IOSFWD
D:\软件\MICROSOFT VISUAL STUDIO 10.0\VC\INCLUDE\CWCHAR
D:\软件\MICROSOFT VISUAL STUDIO 10.0\VC\INCLUDE\WCHAR.H
D:\软件\MICROSOFT VISUAL STUDIO 10.0\VC\INCLUDE\WTIME.INL
D:\软件\MICROSOFT VISUAL STUDIO 10.0\VC\INCLUDE\CRTDBG.H
D:\软件\MICROSOFT VISUAL STUDIO 10.0\VC\INCLUDE\TYPE_TRAITS
D:\软件\MICROSOFT VISUAL STUDIO 10.0\VC\INCLUDE\LIMITS
D:\软件\MICROSOFT VISUAL STUDIO 10.0\VC\INCLUDE\YMATH.H
D:\软件\MICROSOFT VISUAL STUDIO 10.0\VC\INCLUDE\CFLOAT
D:\软件\MICROSOFT VISUAL STUDIO 10.0\VC\INCLUDE\FLOAT.H
D:\软件\MICROSOFT VISUAL STUDIO 10.0\VC\INCLUDE\CRTWRN.H
D:\软件\MICROSOFT VISUAL STUDIO 10.0\VC\INCLUDE\XTR1COMMON
D:\软件\MICROSOFT VISUAL STUDIO 10.0\VC\INCLUDE\XFWRAP
D:\软件\MICROSOFT VISUAL STUDIO 10.0\VC\INCLUDE\XFWRAP1
D:\软件\MICROSOFT VISUAL STUDIO 10.0\VC\INCLUDE\XXTYPE_TRAITS
D:\软件\MICROSOFT VISUAL STUDIO 10.0\VC\INCLUDE\TYPEINFO
D:\软件\MICROSOFT VISUAL STUDIO 10.0\VC\INCLUDE\XLOCINFO
D:\软件\MICROSOFT VISUAL STUDIO 10.0\VC\INCLUDE\XLOCINFO.H
D:\软件\MICROSOFT VISUAL STUDIO 10.0\VC\INCLUDE\CTYPE.H
D:\软件\MICROSOFT VISUAL STUDIO 10.0\VC\INCLUDE\LOCALE.H
D:\软件\MICROSOFT VISUAL STUDIO 10.0\VC\INCLUDE\XDEBUG
D:\软件\MICROSOFT VISUAL STUDIO 10.0\VC\INCLUDE\SYSTEM_ERROR
D:\软件\MICROSOFT VISUAL STUDIO 10.0\VC\INCLUDE\CERRNO
D:\软件\MICROSOFT VISUAL STUDIO 10.0\VC\INCLUDE\ERRNO.H
D:\软件\MICROSOFT VISUAL STUDIO 10.0\VC\INCLUDE\SHARE.H
D:\软件\MICROSOFT VISUAL STUDIO 10.0\VC\INCLUDE\STRING
C:\USERS\VANCE\DOCUMENTS\VISUAL STUDIO 2010\PROJECTS\ASS2\LIST.H
C:\USERS\VANCE\DOCUMENTS\VISUAL STUDIO 2010\PROJECTS\ASS2\CONNECTION.H
^C:\USERS\VANCE\DOCUMENTS\VISUAL STUDIO 2010\PROJECTS\ASS2\MAP.CPP
D:\软件\MICROSOFT VISUAL STUDIO 10.0\VC\INCLUDE\FSTREAM
D:\软件\MICROSOFT VISUAL STUDIO 10.0\VC\INCLUDE\ISTREAM
D:\软件\MICROSOFT VISUAL STUDIO 10.0\VC\INCLUDE\OSTREAM
D:\软件\MICROSOFT VISUAL STUDIO 10.0\VC\INCLUDE\IOS
D:\软件\MICROSOFT VISUAL STUDIO 10.0\VC\INCLUDE\XLOCNUM
D:\软件\MICROSOFT VISUAL STUDIO 10.0\VC\INCLUDE\CLIMITS
D:\软件\MICROSOFT VISUAL STUDIO 10.0\VC\INCLUDE\YVALS.H
D:\软件\MICROSOFT VISUAL STUDIO 10.0\VC\INCLUDE\CRTDEFS.H
D:\软件\MICROSOFT VISUAL STUDIO 10.0\VC\INCLUDE\SAL.H
D:\软件\MICROSOFT VISUAL STUDIO 10.0\VC\INCLUDE\CODEANALYSIS\SOURCEANNOTATIONS.H
D:\软件\MICROSOFT VISUAL STUDIO 10.0\VC\INCLUDE\VADEFS.H
D:\软件\MICROSOFT VISUAL STUDIO 10.0\VC\INCLUDE\USE_ANSI.H
D:\软件\MICROSOFT VISUAL STUDIO 10.0\VC\INCLUDE\LIMITS.H
D:\软件\MICROSOFT VISUAL STUDIO 10.0\VC\INCLUDE\CMATH
D:\软件\MICROSOFT VISUAL STUDIO 10.0\VC\INCLUDE\MATH.H
D:\软件\MICROSOFT VISUAL STUDIO 10.0\VC\INCLUDE\CSTDIO
D:\软件\MICROSOFT VISUAL STUDIO 10.0\VC\INCLUDE\STDIO.H
D:\软件\MICROSOFT VISUAL STUDIO 10.0\VC\INCLUDE\SWPRINTF.INL
D:\软件\MICROSOFT VISUAL STUDIO 10.0\VC\INCLUDE\CSTDLIB
D:\软件\MICROSOFT VISUAL STUDIO 10.0\VC\INCLUDE\STDLIB.H
D:\软件\MICROSOFT VISUAL STUDIO 10.0\VC\INCLUDE\STREAMBUF
D:\软件\MICROSOFT VISUAL STUDIO 10.0\VC\INCLUDE\XIOSBASE
D:\软件\MICROSOFT VISUAL STUDIO 10.0\VC\INCLUDE\XLOCALE
D:\软件\MICROSOFT VISUAL STUDIO 10.0\VC\INCLUDE\CSTRING
D:\软件\MICROSOFT VISUAL STUDIO 10.0\VC\INCLUDE\STRING.H
D:\软件\MICROSOFT VISUAL STUDIO 10.0\VC\INCLUDE\STDEXCEPT
D:\软件\MICROSOFT VISUAL STUDIO 10.0\VC\INCLUDE\EXCEPTION
D:\软件\MICROSOFT VISUAL STUDIO 10.0\VC\INCLUDE\XSTDDEF
D:\软件\MICROSOFT VISUAL STUDIO 10.0\VC\INCLUDE\CSTDDEF
D:\软件\MICROSOFT VISUAL STUDIO 10.0\VC\INCLUDE\STDDEF.H
D:\软件\MICROSOFT VISUAL STUDIO 10.0\VC\INCLUDE\EH.H
D:\软件\MICROSOFT VISUAL STUDIO 10.0\VC\INCLUDE\MALLOC.H
D:\软件\MICROSOFT VISUAL STUDIO 10.0\VC\INCLUDE\XSTRING
D:\软件\MICROSOFT VISUAL STUDIO 10.0\VC\INCLUDE\XMEMORY
D:\软件\MICROSOFT VISUAL STUDIO 10.0\VC\INCLUDE\NEW
D:\软件\MICROSOFT VISUAL STUDIO 10.0\VC\INCLUDE\XUTILITY
D:\软件\MICROSOFT VISUAL STUDIO 10.0\VC\INCLUDE\UTILITY
D:\软件\MICROSOFT VISUAL STUDIO 10.0\VC\INCLUDE\IOSFWD
D:\软件\MICROSOFT VISUAL STUDIO 10.0\VC\INCLUDE\CWCHAR
D:\软件\MICROSOFT VISUAL STUDIO 10.0\VC\INCLUDE\WCHAR.H
D:\软件\MICROSOFT VISUAL STUDIO 10.0\VC\INCLUDE\WTIME.INL
D:\软件\MICROSOFT VISUAL STUDIO 10.0\VC\INCLUDE\CRTDBG.H
D:\软件\MICROSOFT VISUAL STUDIO 10.0\VC\INCLUDE\TYPE_TRAITS
D:\软件\MICROSOFT VISUAL STUDIO 10.0\VC\INCLUDE\LIMITS
D:\软件\MICROSOFT VISUAL STUDIO 10.0\VC\INCLUDE\YMATH.H
D:\软件\MICROSOFT VISUAL STUDIO 10.0\VC\INCLUDE\CFLOAT
D:\软件\MICROSOFT VISUAL STUDIO 10.0\VC\INCLUDE\FLOAT.H
D:\软件\MICROSOFT VISUAL STUDIO 10.0\VC\INCLUDE\CRTWRN.H
D:\软件\MICROSOFT VISUAL STUDIO 10.0\VC\INCLUDE\XTR1COMMON
D:\软件\MICROSOFT VISUAL STUDIO 10.0\VC\INCLUDE\XFWRAP
D:\软件\MICROSOFT VISUAL STUDIO 10.0\VC\INCLUDE\XFWRAP1
D:\软件\MICROSOFT VISUAL STUDIO 10.0\VC\INCLUDE\XXTYPE_TRAITS
D:\软件\MICROSOFT VISUAL STUDIO 10.0\VC\INCLUDE\TYPEINFO
D:\软件\MICROSOFT VISUAL STUDIO 10.0\VC\INCLUDE\XLOCINFO
D:\软件\MICROSOFT VISUAL STUDIO 10.0\VC\INCLUDE\XLOCINFO.H
D:\软件\MICROSOFT VISUAL STUDIO 10.0\VC\INCLUDE\CTYPE.H
D:\软件\MICROSOFT VISUAL STUDIO 10.0\VC\INCLUDE\LOCALE.H
D:\软件\MICROSOFT VISUAL STUDIO 10.0\VC\INCLUDE\XDEBUG
D:\软件\MICROSOFT VISUAL STUDIO 10.0\VC\INCLUDE\SYSTEM_ERROR
D:\软件\MICROSOFT VISUAL STUDIO 10.0\VC\INCLUDE\CERRNO
D:\软件\MICROSOFT VISUAL STUDIO 10.0\VC\INCLUDE\ERRNO.H
D:\软件\MICROSOFT VISUAL STUDIO 10.0\VC\INCLUDE\SHARE.H
D:\软件\MICROSOFT VISUAL STUDIO 10.0\VC\INCLUDE\STRING
D:\软件\MICROSOFT VISUAL STUDIO 10.0\VC\INCLUDE\IOSTREAM
C:\USERS\VANCE\DOCUMENTS\VISUAL STUDIO 2010\PROJECTS\ASS2\MAP.H
C:\USERS\VANCE\DOCUMENTS\VISUAL STUDIO 2010\PROJECTS\ASS2\TOWN.H
C:\USERS\VANCE\DOCUMENTS\VISUAL STUDIO 2010\PROJECTS\ASS2\LIST.H
C:\USERS\VANCE\DOCUMENTS\VISUAL STUDIO 2010\PROJECTS\ASS2\CONNECTION.H
^C:\USERS\VANCE\DOCUMENTS\VISUAL STUDIO 2010\PROJECTS\ASS2\LIST.CPP
D:\软件\MICROSOFT VISUAL STUDIO 10.0\VC\INCLUDE\IOSTREAM
D:\软件\MICROSOFT VISUAL STUDIO 10.0\VC\INCLUDE\ISTREAM
D:\软件\MICROSOFT VISUAL STUDIO 10.0\VC\INCLUDE\OSTREAM
D:\软件\MICROSOFT VISUAL STUDIO 10.0\VC\INCLUDE\IOS
D:\软件\MICROSOFT VISUAL STUDIO 10.0\VC\INCLUDE\XLOCNUM
D:\软件\MICROSOFT VISUAL STUDIO 10.0\VC\INCLUDE\CLIMITS
D:\软件\MICROSOFT VISUAL STUDIO 10.0\VC\INCLUDE\YVALS.H
D:\软件\MICROSOFT VISUAL STUDIO 10.0\VC\INCLUDE\CRTDEFS.H
D:\软件\MICROSOFT VISUAL STUDIO 10.0\VC\INCLUDE\SAL.H
D:\软件\MICROSOFT VISUAL STUDIO 10.0\VC\INCLUDE\CODEANALYSIS\SOURCEANNOTATIONS.H
D:\软件\MICROSOFT VISUAL STUDIO 10.0\VC\INCLUDE\VADEFS.H
D:\软件\MICROSOFT VISUAL STUDIO 10.0\VC\INCLUDE\USE_ANSI.H
D:\软件\MICROSOFT VISUAL STUDIO 10.0\VC\INCLUDE\LIMITS.H
D:\软件\MICROSOFT VISUAL STUDIO 10.0\VC\INCLUDE\CMATH
D:\软件\MICROSOFT VISUAL STUDIO 10.0\VC\INCLUDE\MATH.H
D:\软件\MICROSOFT VISUAL STUDIO 10.0\VC\INCLUDE\CSTDIO
D:\软件\MICROSOFT VISUAL STUDIO 10.0\VC\INCLUDE\STDIO.H
D:\软件\MICROSOFT VISUAL STUDIO 10.0\VC\INCLUDE\SWPRINTF.INL
D:\软件\MICROSOFT VISUAL STUDIO 10.0\VC\INCLUDE\CSTDLIB
D:\软件\MICROSOFT VISUAL STUDIO 10.0\VC\INCLUDE\STDLIB.H
D:\软件\MICROSOFT VISUAL STUDIO 10.0\VC\INCLUDE\STREAMBUF
D:\软件\MICROSOFT VISUAL STUDIO 10.0\VC\INCLUDE\XIOSBASE
D:\软件\MICROSOFT VISUAL STUDIO 10.0\VC\INCLUDE\XLOCALE
D:\软件\MICROSOFT VISUAL STUDIO 10.0\VC\INCLUDE\CSTRING
D:\软件\MICROSOFT VISUAL STUDIO 10.0\VC\INCLUDE\STRING.H
D:\软件\MICROSOFT VISUAL STUDIO 10.0\VC\INCLUDE\STDEXCEPT
D:\软件\MICROSOFT VISUAL STUDIO 10.0\VC\INCLUDE\EXCEPTION
D:\软件\MICROSOFT VISUAL STUDIO 10.0\VC\INCLUDE\XSTDDEF
D:\软件\MICROSOFT VISUAL STUDIO 10.0\VC\INCLUDE\CSTDDEF
D:\软件\MICROSOFT VISUAL STUDIO 10.0\VC\INCLUDE\STDDEF.H
D:\软件\MICROSOFT VISUAL STUDIO 10.0\VC\INCLUDE\EH.H
D:\软件\MICROSOFT VISUAL STUDIO 10.0\VC\INCLUDE\MALLOC.H
D:\软件\MICROSOFT VISUAL STUDIO 10.0\VC\INCLUDE\XSTRING
D:\软件\MICROSOFT VISUAL STUDIO 10.0\VC\INCLUDE\XMEMORY
D:\软件\MICROSOFT VISUAL STUDIO 10.0\VC\INCLUDE\NEW
D:\软件\MICROSOFT VISUAL STUDIO 10.0\VC\INCLUDE\XUTILITY
D:\软件\MICROSOFT VISUAL STUDIO 10.0\VC\INCLUDE\UTILITY
D:\软件\MICROSOFT VISUAL STUDIO 10.0\VC\INCLUDE\IOSFWD
D:\软件\MICROSOFT VISUAL STUDIO 10.0\VC\INCLUDE\CWCHAR
D:\软件\MICROSOFT VISUAL STUDIO 10.0\VC\INCLUDE\WCHAR.H
D:\软件\MICROSOFT VISUAL STUDIO 10.0\VC\INCLUDE\WTIME.INL
D:\软件\MICROSOFT VISUAL STUDIO 10.0\VC\INCLUDE\CRTDBG.H
D:\软件\MICROSOFT VISUAL STUDIO 10.0\VC\INCLUDE\TYPE_TRAITS
D:\软件\MICROSOFT VISUAL STUDIO 10.0\VC\INCLUDE\LIMITS
D:\软件\MICROSOFT VISUAL STUDIO 10.0\VC\INCLUDE\YMATH.H
D:\软件\MICROSOFT VISUAL STUDIO 10.0\VC\INCLUDE\CFLOAT
D:\软件\MICROSOFT VISUAL STUDIO 10.0\VC\INCLUDE\FLOAT.H
D:\软件\MICROSOFT VISUAL STUDIO 10.0\VC\INCLUDE\CRTWRN.H
D:\软件\MICROSOFT VISUAL STUDIO 10.0\VC\INCLUDE\XTR1COMMON
D:\软件\MICROSOFT VISUAL STUDIO 10.0\VC\INCLUDE\XFWRAP
D:\软件\MICROSOFT VISUAL STUDIO 10.0\VC\INCLUDE\XFWRAP1
D:\软件\MICROSOFT VISUAL STUDIO 10.0\VC\INCLUDE\XXTYPE_TRAITS
D:\软件\MICROSOFT VISUAL STUDIO 10.0\VC\INCLUDE\TYPEINFO
D:\软件\MICROSOFT VISUAL STUDIO 10.0\VC\INCLUDE\XLOCINFO
D:\软件\MICROSOFT VISUAL STUDIO 10.0\VC\INCLUDE\XLOCINFO.H
D:\软件\MICROSOFT VISUAL STUDIO 10.0\VC\INCLUDE\CTYPE.H
D:\软件\MICROSOFT VISUAL STUDIO 10.0\VC\INCLUDE\LOCALE.H
D:\软件\MICROSOFT VISUAL STUDIO 10.0\VC\INCLUDE\XDEBUG
D:\软件\MICROSOFT VISUAL STUDIO 10.0\VC\INCLUDE\SYSTEM_ERROR
D:\软件\MICROSOFT VISUAL STUDIO 10.0\VC\INCLUDE\CERRNO
D:\软件\MICROSOFT VISUAL STUDIO 10.0\VC\INCLUDE\ERRNO.H
D:\软件\MICROSOFT VISUAL STUDIO 10.0\VC\INCLUDE\SHARE.H
C:\USERS\VANCE\DOCUMENTS\VISUAL STUDIO 2010\PROJECTS\ASS2\LIST.H
C:\USERS\VANCE\DOCUMENTS\VISUAL STUDIO 2010\PROJECTS\ASS2\CONNECTION.H
D:\软件\MICROSOFT VISUAL STUDIO 10.0\VC\BIN\2052\CLUI.DLL
C:\WINDOWS\GLOBALIZATION\SORTING\SORTDEFAULT.NLS
C:\WINDOWS\SYSTEM32\RSAENH.DLL
C:\WINDOWS\SYSTEM32\TZRES.DLL
^C:\USERS\VANCE\DOCUMENTS\VISUAL STUDIO 2010\PROJECTS\ASS2\DIJKSTRA.CPP
D:\软件\MICROSOFT VISUAL STUDIO 10.0\VC\INCLUDE\STRING
D:\软件\MICROSOFT VISUAL STUDIO 10.0\VC\INCLUDE\ISTREAM
D:\软件\MICROSOFT VISUAL STUDIO 10.0\VC\INCLUDE\OSTREAM
D:\软件\MICROSOFT VISUAL STUDIO 10.0\VC\INCLUDE\IOS
D:\软件\MICROSOFT VISUAL STUDIO 10.0\VC\INCLUDE\XLOCNUM
D:\软件\MICROSOFT VISUAL STUDIO 10.0\VC\INCLUDE\CLIMITS
D:\软件\MICROSOFT VISUAL STUDIO 10.0\VC\INCLUDE\YVALS.H
D:\软件\MICROSOFT VISUAL STUDIO 10.0\VC\INCLUDE\CRTDEFS.H
D:\软件\MICROSOFT VISUAL STUDIO 10.0\VC\INCLUDE\SAL.H
D:\软件\MICROSOFT VISUAL STUDIO 10.0\VC\INCLUDE\CODEANALYSIS\SOURCEANNOTATIONS.H
D:\软件\MICROSOFT VISUAL STUDIO 10.0\VC\INCLUDE\VADEFS.H
D:\软件\MICROSOFT VISUAL STUDIO 10.0\VC\INCLUDE\USE_ANSI.H
D:\软件\MICROSOFT VISUAL STUDIO 10.0\VC\INCLUDE\LIMITS.H
D:\软件\MICROSOFT VISUAL STUDIO 10.0\VC\INCLUDE\CMATH
D:\软件\MICROSOFT VISUAL STUDIO 10.0\VC\INCLUDE\MATH.H
D:\软件\MICROSOFT VISUAL STUDIO 10.0\VC\INCLUDE\CSTDIO
D:\软件\MICROSOFT VISUAL STUDIO 10.0\VC\INCLUDE\STDIO.H
D:\软件\MICROSOFT VISUAL STUDIO 10.0\VC\INCLUDE\SWPRINTF.INL
D:\软件\MICROSOFT VISUAL STUDIO 10.0\VC\INCLUDE\CSTDLIB
D:\软件\MICROSOFT VISUAL STUDIO 10.0\VC\INCLUDE\STDLIB.H
D:\软件\MICROSOFT VISUAL STUDIO 10.0\VC\INCLUDE\STREAMBUF
D:\软件\MICROSOFT VISUAL STUDIO 10.0\VC\INCLUDE\XIOSBASE
D:\软件\MICROSOFT VISUAL STUDIO 10.0\VC\INCLUDE\XLOCALE
D:\软件\MICROSOFT VISUAL STUDIO 10.0\VC\INCLUDE\CSTRING
D:\软件\MICROSOFT VISUAL STUDIO 10.0\VC\INCLUDE\STRING.H
D:\软件\MICROSOFT VISUAL STUDIO 10.0\VC\INCLUDE\STDEXCEPT
D:\软件\MICROSOFT VISUAL STUDIO 10.0\VC\INCLUDE\EXCEPTION
D:\软件\MICROSOFT VISUAL STUDIO 10.0\VC\INCLUDE\XSTDDEF
D:\软件\MICROSOFT VISUAL STUDIO 10.0\VC\INCLUDE\CSTDDEF
D:\软件\MICROSOFT VISUAL STUDIO 10.0\VC\INCLUDE\STDDEF.H
D:\软件\MICROSOFT VISUAL STUDIO 10.0\VC\INCLUDE\EH.H
D:\软件\MICROSOFT VISUAL STUDIO 10.0\VC\INCLUDE\MALLOC.H
D:\软件\MICROSOFT VISUAL STUDIO 10.0\VC\INCLUDE\XSTRING
D:\软件\MICROSOFT VISUAL STUDIO 10.0\VC\INCLUDE\XMEMORY
D:\软件\MICROSOFT VISUAL STUDIO 10.0\VC\INCLUDE\NEW
D:\软件\MICROSOFT VISUAL STUDIO 10.0\VC\INCLUDE\XUTILITY
D:\软件\MICROSOFT VISUAL STUDIO 10.0\VC\INCLUDE\UTILITY
D:\软件\MICROSOFT VISUAL STUDIO 10.0\VC\INCLUDE\IOSFWD
D:\软件\MICROSOFT VISUAL STUDIO 10.0\VC\INCLUDE\CWCHAR
D:\软件\MICROSOFT VISUAL STUDIO 10.0\VC\INCLUDE\WCHAR.H
D:\软件\MICROSOFT VISUAL STUDIO 10.0\VC\INCLUDE\WTIME.INL
D:\软件\MICROSOFT VISUAL STUDIO 10.0\VC\INCLUDE\CRTDBG.H
D:\软件\MICROSOFT VISUAL STUDIO 10.0\VC\INCLUDE\TYPE_TRAITS
D:\软件\MICROSOFT VISUAL STUDIO 10.0\VC\INCLUDE\LIMITS
D:\软件\MICROSOFT VISUAL STUDIO 10.0\VC\INCLUDE\YMATH.H
D:\软件\MICROSOFT VISUAL STUDIO 10.0\VC\INCLUDE\CFLOAT
D:\软件\MICROSOFT VISUAL STUDIO 10.0\VC\INCLUDE\FLOAT.H
D:\软件\MICROSOFT VISUAL STUDIO 10.0\VC\INCLUDE\CRTWRN.H
D:\软件\MICROSOFT VISUAL STUDIO 10.0\VC\INCLUDE\XTR1COMMON
D:\软件\MICROSOFT VISUAL STUDIO 10.0\VC\INCLUDE\XFWRAP
D:\软件\MICROSOFT VISUAL STUDIO 10.0\VC\INCLUDE\XFWRAP1
D:\软件\MICROSOFT VISUAL STUDIO 10.0\VC\INCLUDE\XXTYPE_TRAITS
D:\软件\MICROSOFT VISUAL STUDIO 10.0\VC\INCLUDE\TYPEINFO
D:\软件\MICROSOFT VISUAL STUDIO 10.0\VC\INCLUDE\XLOCINFO
D:\软件\MICROSOFT VISUAL STUDIO 10.0\VC\INCLUDE\XLOCINFO.H
D:\软件\MICROSOFT VISUAL STUDIO 10.0\VC\INCLUDE\CTYPE.H
D:\软件\MICROSOFT VISUAL STUDIO 10.0\VC\INCLUDE\LOCALE.H
D:\软件\MICROSOFT VISUAL STUDIO 10.0\VC\INCLUDE\XDEBUG
D:\软件\MICROSOFT VISUAL STUDIO 10.0\VC\INCLUDE\SYSTEM_ERROR
D:\软件\MICROSOFT VISUAL STUDIO 10.0\VC\INCLUDE\CERRNO
D:\软件\MICROSOFT VISUAL STUDIO 10.0\VC\INCLUDE\ERRNO.H
D:\软件\MICROSOFT VISUAL STUDIO 10.0\VC\INCLUDE\SHARE.H
C:\USERS\VANCE\DOCUMENTS\VISUAL STUDIO 2010\PROJECTS\ASS2\DIJKSTRA.H
C:\USERS\VANCE\DOCUMENTS\VISUAL STUDIO 2010\PROJECTS\ASS2\MAP.H
C:\USERS\VANCE\DOCUMENTS\VISUAL STUDIO 2010\PROJECTS\ASS2\TOWN.H
D:\软件\MICROSOFT VISUAL STUDIO 10.0\VC\INCLUDE\IOSTREAM
C:\USERS\VANCE\DOCUMENTS\VISUAL STUDIO 2010\PROJECTS\ASS2\LIST.H
C:\USERS\VANCE\DOCUMENTS\VISUAL STUDIO 2010\PROJECTS\ASS2\CONNECTION.H
^C:\USERS\VANCE\DOCUMENTS\VISUAL STUDIO 2010\PROJECTS\ASS2\CONNECTION.CPP
D:\软件\MICROSOFT VISUAL STUDIO 10.0\VC\INCLUDE\IOSTREAM
D:\软件\MICROSOFT VISUAL STUDIO 10.0\VC\INCLUDE\ISTREAM
D:\软件\MICROSOFT VISUAL STUDIO 10.0\VC\INCLUDE\OSTREAM
D:\软件\MICROSOFT VISUAL STUDIO 10.0\VC\INCLUDE\IOS
D:\软件\MICROSOFT VISUAL STUDIO 10.0\VC\INCLUDE\XLOCNUM
D:\软件\MICROSOFT VISUAL STUDIO 10.0\VC\INCLUDE\CLIMITS
D:\软件\MICROSOFT VISUAL STUDIO 10.0\VC\INCLUDE\YVALS.H
D:\软件\MICROSOFT VISUAL STUDIO 10.0\VC\INCLUDE\CRTDEFS.H
D:\软件\MICROSOFT VISUAL STUDIO 10.0\VC\INCLUDE\SAL.H
D:\软件\MICROSOFT VISUAL STUDIO 10.0\VC\INCLUDE\CODEANALYSIS\SOURCEANNOTATIONS.H
D:\软件\MICROSOFT VISUAL STUDIO 10.0\VC\INCLUDE\VADEFS.H
D:\软件\MICROSOFT VISUAL STUDIO 10.0\VC\INCLUDE\USE_ANSI.H
D:\软件\MICROSOFT VISUAL STUDIO 10.0\VC\INCLUDE\LIMITS.H
D:\软件\MICROSOFT VISUAL STUDIO 10.0\VC\INCLUDE\CMATH
D:\软件\MICROSOFT VISUAL STUDIO 10.0\VC\INCLUDE\MATH.H
D:\软件\MICROSOFT VISUAL STUDIO 10.0\VC\INCLUDE\CSTDIO
D:\软件\MICROSOFT VISUAL STUDIO 10.0\VC\INCLUDE\STDIO.H
D:\软件\MICROSOFT VISUAL STUDIO 10.0\VC\INCLUDE\SWPRINTF.INL
D:\软件\MICROSOFT VISUAL STUDIO 10.0\VC\INCLUDE\CSTDLIB
D:\软件\MICROSOFT VISUAL STUDIO 10.0\VC\INCLUDE\STDLIB.H
D:\软件\MICROSOFT VISUAL STUDIO 10.0\VC\INCLUDE\STREAMBUF
D:\软件\MICROSOFT VISUAL STUDIO 10.0\VC\INCLUDE\XIOSBASE
D:\软件\MICROSOFT VISUAL STUDIO 10.0\VC\INCLUDE\XLOCALE
D:\软件\MICROSOFT VISUAL STUDIO 10.0\VC\INCLUDE\CSTRING
D:\软件\MICROSOFT VISUAL STUDIO 10.0\VC\INCLUDE\STRING.H
D:\软件\MICROSOFT VISUAL STUDIO 10.0\VC\INCLUDE\STDEXCEPT
D:\软件\MICROSOFT VISUAL STUDIO 10.0\VC\INCLUDE\EXCEPTION
D:\软件\MICROSOFT VISUAL STUDIO 10.0\VC\INCLUDE\XSTDDEF
D:\软件\MICROSOFT VISUAL STUDIO 10.0\VC\INCLUDE\CSTDDEF
D:\软件\MICROSOFT VISUAL STUDIO 10.0\VC\INCLUDE\STDDEF.H
D:\软件\MICROSOFT VISUAL STUDIO 10.0\VC\INCLUDE\EH.H
D:\软件\MICROSOFT VISUAL STUDIO 10.0\VC\INCLUDE\MALLOC.H
D:\软件\MICROSOFT VISUAL STUDIO 10.0\VC\INCLUDE\XSTRING
D:\软件\MICROSOFT VISUAL STUDIO 10.0\VC\INCLUDE\XMEMORY
D:\软件\MICROSOFT VISUAL STUDIO 10.0\VC\INCLUDE\NEW
D:\软件\MICROSOFT VISUAL STUDIO 10.0\VC\INCLUDE\XUTILITY
D:\软件\MICROSOFT VISUAL STUDIO 10.0\VC\INCLUDE\UTILITY
D:\软件\MICROSOFT VISUAL STUDIO 10.0\VC\INCLUDE\IOSFWD
D:\软件\MICROSOFT VISUAL STUDIO 10.0\VC\INCLUDE\CWCHAR
D:\软件\MICROSOFT VISUAL STUDIO 10.0\VC\INCLUDE\WCHAR.H
D:\软件\MICROSOFT VISUAL STUDIO 10.0\VC\INCLUDE\WTIME.INL
D:\软件\MICROSOFT VISUAL STUDIO 10.0\VC\INCLUDE\CRTDBG.H
D:\软件\MICROSOFT VISUAL STUDIO 10.0\VC\INCLUDE\TYPE_TRAITS
D:\软件\MICROSOFT VISUAL STUDIO 10.0\VC\INCLUDE\LIMITS
D:\软件\MICROSOFT VISUAL STUDIO 10.0\VC\INCLUDE\YMATH.H
D:\软件\MICROSOFT VISUAL STUDIO 10.0\VC\INCLUDE\CFLOAT
D:\软件\MICROSOFT VISUAL STUDIO 10.0\VC\INCLUDE\FLOAT.H
D:\软件\MICROSOFT VISUAL STUDIO 10.0\VC\INCLUDE\CRTWRN.H
D:\软件\MICROSOFT VISUAL STUDIO 10.0\VC\INCLUDE\XTR1COMMON
D:\软件\MICROSOFT VISUAL STUDIO 10.0\VC\INCLUDE\XFWRAP
D:\软件\MICROSOFT VISUAL STUDIO 10.0\VC\INCLUDE\XFWRAP1
D:\软件\MICROSOFT VISUAL STUDIO 10.0\VC\INCLUDE\XXTYPE_TRAITS
D:\软件\MICROSOFT VISUAL STUDIO 10.0\VC\INCLUDE\TYPEINFO
D:\软件\MICROSOFT VISUAL STUDIO 10.0\VC\INCLUDE\XLOCINFO
D:\软件\MICROSOFT VISUAL STUDIO 10.0\VC\INCLUDE\XLOCINFO.H
D:\软件\MICROSOFT VISUAL STUDIO 10.0\VC\INCLUDE\CTYPE.H
D:\软件\MICROSOFT VISUAL STUDIO 10.0\VC\INCLUDE\LOCALE.H
D:\软件\MICROSOFT VISUAL STUDIO 10.0\VC\INCLUDE\XDEBUG
D:\软件\MICROSOFT VISUAL STUDIO 10.0\VC\INCLUDE\SYSTEM_ERROR
D:\软件\MICROSOFT VISUAL STUDIO 10.0\VC\INCLUDE\CERRNO
D:\软件\MICROSOFT VISUAL STUDIO 10.0\VC\INCLUDE\ERRNO.H
D:\软件\MICROSOFT VISUAL STUDIO 10.0\VC\INCLUDE\SHARE.H
D:\软件\MICROSOFT VISUAL STUDIO 10.0\VC\INCLUDE\STRING
C:\USERS\VANCE\DOCUMENTS\VISUAL STUDIO 2010\PROJECTS\ASS2\CONNECTION.H
^C:\USERS\VANCE\DOCUMENTS\VISUAL STUDIO 2010\PROJECTS\ASS2\ASSIGNMENT2.CPP
D:\软件\MICROSOFT VISUAL STUDIO 10.0\VC\INCLUDE\IOSTREAM
D:\软件\MICROSOFT VISUAL STUDIO 10.0\VC\INCLUDE\ISTREAM
D:\软件\MICROSOFT VISUAL STUDIO 10.0\VC\INCLUDE\OSTREAM
D:\软件\MICROSOFT VISUAL STUDIO 10.0\VC\INCLUDE\IOS
D:\软件\MICROSOFT VISUAL STUDIO 10.0\VC\INCLUDE\XLOCNUM
D:\软件\MICROSOFT VISUAL STUDIO 10.0\VC\INCLUDE\CLIMITS
D:\软件\MICROSOFT VISUAL STUDIO 10.0\VC\INCLUDE\YVALS.H
D:\软件\MICROSOFT VISUAL STUDIO 10.0\VC\INCLUDE\CRTDEFS.H
D:\软件\MICROSOFT VISUAL STUDIO 10.0\VC\INCLUDE\SAL.H
D:\软件\MICROSOFT VISUAL STUDIO 10.0\VC\INCLUDE\CODEANALYSIS\SOURCEANNOTATIONS.H
D:\软件\MICROSOFT VISUAL STUDIO 10.0\VC\INCLUDE\VADEFS.H
D:\软件\MICROSOFT VISUAL STUDIO 10.0\VC\INCLUDE\USE_ANSI.H
D:\软件\MICROSOFT VISUAL STUDIO 10.0\VC\INCLUDE\LIMITS.H
D:\软件\MICROSOFT VISUAL STUDIO 10.0\VC\INCLUDE\CMATH
D:\软件\MICROSOFT VISUAL STUDIO 10.0\VC\INCLUDE\MATH.H
D:\软件\MICROSOFT VISUAL STUDIO 10.0\VC\INCLUDE\CSTDIO
D:\软件\MICROSOFT VISUAL STUDIO 10.0\VC\INCLUDE\STDIO.H
D:\软件\MICROSOFT VISUAL STUDIO 10.0\VC\INCLUDE\SWPRINTF.INL
D:\软件\MICROSOFT VISUAL STUDIO 10.0\VC\INCLUDE\CSTDLIB
D:\软件\MICROSOFT VISUAL STUDIO 10.0\VC\INCLUDE\STDLIB.H
D:\软件\MICROSOFT VISUAL STUDIO 10.0\VC\INCLUDE\STREAMBUF
D:\软件\MICROSOFT VISUAL STUDIO 10.0\VC\INCLUDE\XIOSBASE
D:\软件\MICROSOFT VISUAL STUDIO 10.0\VC\INCLUDE\XLOCALE
D:\软件\MICROSOFT VISUAL STUDIO 10.0\VC\INCLUDE\CSTRING
D:\软件\MICROSOFT VISUAL STUDIO 10.0\VC\INCLUDE\STRING.H
D:\软件\MICROSOFT VISUAL STUDIO 10.0\VC\INCLUDE\STDEXCEPT
D:\软件\MICROSOFT VISUAL STUDIO 10.0\VC\INCLUDE\EXCEPTION
D:\软件\MICROSOFT VISUAL STUDIO 10.0\VC\INCLUDE\XSTDDEF
D:\软件\MICROSOFT VISUAL STUDIO 10.0\VC\INCLUDE\CSTDDEF
D:\软件\MICROSOFT VISUAL STUDIO 10.0\VC\INCLUDE\STDDEF.H
D:\软件\MICROSOFT VISUAL STUDIO 10.0\VC\INCLUDE\EH.H
D:\软件\MICROSOFT VISUAL STUDIO 10.0\VC\INCLUDE\MALLOC.H
D:\软件\MICROSOFT VISUAL STUDIO 10.0\VC\INCLUDE\XSTRING
D:\软件\MICROSOFT VISUAL STUDIO 10.0\VC\INCLUDE\XMEMORY
D:\软件\MICROSOFT VISUAL STUDIO 10.0\VC\INCLUDE\NEW
D:\软件\MICROSOFT VISUAL STUDIO 10.0\VC\INCLUDE\XUTILITY
D:\软件\MICROSOFT VISUAL STUDIO 10.0\VC\INCLUDE\UTILITY
D:\软件\MICROSOFT VISUAL STUDIO 10.0\VC\INCLUDE\IOSFWD
D:\软件\MICROSOFT VISUAL STUDIO 10.0\VC\INCLUDE\CWCHAR
D:\软件\MICROSOFT VISUAL STUDIO 10.0\VC\INCLUDE\WCHAR.H
D:\软件\MICROSOFT VISUAL STUDIO 10.0\VC\INCLUDE\WTIME.INL
D:\软件\MICROSOFT VISUAL STUDIO 10.0\VC\INCLUDE\CRTDBG.H
D:\软件\MICROSOFT VISUAL STUDIO 10.0\VC\INCLUDE\TYPE_TRAITS
D:\软件\MICROSOFT VISUAL STUDIO 10.0\VC\INCLUDE\LIMITS
D:\软件\MICROSOFT VISUAL STUDIO 10.0\VC\INCLUDE\YMATH.H
D:\软件\MICROSOFT VISUAL STUDIO 10.0\VC\INCLUDE\CFLOAT
D:\软件\MICROSOFT VISUAL STUDIO 10.0\VC\INCLUDE\FLOAT.H
D:\软件\MICROSOFT VISUAL STUDIO 10.0\VC\INCLUDE\CRTWRN.H
D:\软件\MICROSOFT VISUAL STUDIO 10.0\VC\INCLUDE\XTR1COMMON
D:\软件\MICROSOFT VISUAL STUDIO 10.0\VC\INCLUDE\XFWRAP
D:\软件\MICROSOFT VISUAL STUDIO 10.0\VC\INCLUDE\XFWRAP1
D:\软件\MICROSOFT VISUAL STUDIO 10.0\VC\INCLUDE\XXTYPE_TRAITS
D:\软件\MICROSOFT VISUAL STUDIO 10.0\VC\INCLUDE\TYPEINFO
D:\软件\MICROSOFT VISUAL STUDIO 10.0\VC\INCLUDE\XLOCINFO
D:\软件\MICROSOFT VISUAL STUDIO 10.0\VC\INCLUDE\XLOCINFO.H
D:\软件\MICROSOFT VISUAL STUDIO 10.0\VC\INCLUDE\CTYPE.H
D:\软件\MICROSOFT VISUAL STUDIO 10.0\VC\INCLUDE\LOCALE.H
D:\软件\MICROSOFT VISUAL STUDIO 10.0\VC\INCLUDE\XDEBUG
D:\软件\MICROSOFT VISUAL STUDIO 10.0\VC\INCLUDE\SYSTEM_ERROR
D:\软件\MICROSOFT VISUAL STUDIO 10.0\VC\INCLUDE\CERRNO
D:\软件\MICROSOFT VISUAL STUDIO 10.0\VC\INCLUDE\ERRNO.H
D:\软件\MICROSOFT VISUAL STUDIO 10.0\VC\INCLUDE\SHARE.H
D:\软件\MICROSOFT VISUAL STUDIO 10.0\VC\INCLUDE\STRING
D:\软件\MICROSOFT VISUAL STUDIO 10.0\VC\INCLUDE\FSTREAM
C:\USERS\VANCE\DOCUMENTS\VISUAL STUDIO 2010\PROJECTS\ASS2\MAP.H
C:\USERS\VANCE\DOCUMENTS\VISUAL STUDIO 2010\PROJECTS\ASS2\TOWN.H
C:\USERS\VANCE\DOCUMENTS\VISUAL STUDIO 2010\PROJECTS\ASS2\LIST.H
C:\USERS\VANCE\DOCUMENTS\VISUAL STUDIO 2010\PROJECTS\ASS2\CONNECTION.H
C:\USERS\VANCE\DOCUMENTS\VISUAL STUDIO 2010\PROJECTS\ASS2\DIJKSTRA.H
D:\软件\MICROSOFT VISUAL STUDIO 10.0\VC\BIN\2052\CLUI.DLL
C:\WINDOWS\GLOBALIZATION\SORTING\SORTDEFAULT.NLS
C:\WINDOWS\SYSTEM32\RSAENH.DLL
C:\WINDOWS\SYSTEM32\TZRES.DLL
D:\软件\MICROSOFT VISUAL STUDIO 10.0\COMMON7\IDE\MSPDBSRV.EXE
D:\软件\MICROSOFT VISUAL STUDIO 10.0\VC\INCLUDE\IOMANIP
D:\软件\MICROSOFT VISUAL STUDIO 10.0\VC\INCLUDE\XLOCMON
D:\软件\MICROSOFT VISUAL STUDIO 10.0\VC\INCLUDE\XLOCTIME
D:\软件\MICROSOFT VISUAL STUDIO 10.0\VC\INCLUDE\CTIME
D:\软件\MICROSOFT VISUAL STUDIO 10.0\VC\INCLUDE\TIME.H
D:\软件\MICROSOFT VISUAL STUDIO 10.0\VC\INCLUDE\TIME.INL
