^C:\USERS\VANCE\DOCUMENTS\VISUAL STUDIO 2010\PROJECTS\ASSIGNMENT2\ASSIGNMENT2\ASSIGNMENT2.CPP|C:\USERS\VANCE\DOCUMENTS\VISUAL STUDIO 2010\PROJECTS\ASSIGNMENT2\ASSIGNMENT2\CONNECTION.CPP|C:\USERS\VANCE\DOCUMENTS\VISUAL STUDIO 2010\PROJECTS\ASSIGNMENT2\ASSIGNMENT2\DIJKSTRA.CPP|C:\USERS\VANCE\DOCUMENTS\VISUAL STUDIO 2010\PROJECTS\ASSIGNMENT2\ASSIGNMENT2\LIST.CPP|C:\USERS\VANCE\DOCUMENTS\VISUAL STUDIO 2010\PROJECTS\ASSIGNMENT2\ASSIGNMENT2\MAP.CPP|C:\USERS\VANCE\DOCUMENTS\VISUAL STUDIO 2010\PROJECTS\ASSIGNMENT2\ASSIGNMENT2\TOWN.CPP
C:\USERS\VANCE\DOCUMENTS\VISUAL STUDIO 2010\PROJECTS\ASSIGNMENT2\ASSIGNMENT2\DEBUG\ASSIGNMENT2.OBJ
C:\USERS\VANCE\DOCUMENTS\VISUAL STUDIO 2010\PROJECTS\ASSIGNMENT2\ASSIGNMENT2\DEBUG\CONNECTION.OBJ
C:\USERS\VANCE\DOCUMENTS\VISUAL STUDIO 2010\PROJECTS\ASSIGNMENT2\ASSIGNMENT2\DEBUG\LIST.OBJ
C:\USERS\VANCE\DOCUMENTS\VISUAL STUDIO 2010\PROJECTS\ASSIGNMENT2\ASSIGNMENT2\DEBUG\MAP.OBJ
C:\USERS\VANCE\DOCUMENTS\VISUAL STUDIO 2010\PROJECTS\ASSIGNMENT2\ASSIGNMENT2\DEBUG\TOWN.OBJ
C:\USERS\VANCE\DOCUMENTS\VISUAL STUDIO 2010\PROJECTS\ASSIGNMENT2\ASSIGNMENT2\DEBUG\DIJKSTRA.OBJ
^C:\USERS\VANCE\DOCUMENTS\VISUAL STUDIO 2010\PROJECTS\ASSIGNMENT2\ASSIGNMENT2\ASSIGNMENT2.CPP
C:\USERS\VANCE\DOCUMENTS\VISUAL STUDIO 2010\PROJECTS\ASSIGNMENT2\ASSIGNMENT2\DEBUG\VC100.PDB
C:\USERS\VANCE\DOCUMENTS\VISUAL STUDIO 2010\PROJECTS\ASSIGNMENT2\ASSIGNMENT2\DEBUG\ASSIGNMENT2.OBJ
^C:\USERS\VANCE\DOCUMENTS\VISUAL STUDIO 2010\PROJECTS\ASSIGNMENT2\ASSIGNMENT2\CONNECTION.CPP
C:\USERS\VANCE\DOCUMENTS\VISUAL STUDIO 2010\PROJECTS\ASSIGNMENT2\ASSIGNMENT2\DEBUG\VC100.PDB
^C:\USERS\VANCE\DOCUMENTS\VISUAL STUDIO 2010\PROJECTS\ASSIGNMENT2\ASSIGNMENT2\DIJKSTRA.CPP
C:\USERS\VANCE\DOCUMENTS\VISUAL STUDIO 2010\PROJECTS\ASSIGNMENT2\ASSIGNMENT2\DEBUG\VC100.PDB
C:\USERS\VANCE\DOCUMENTS\VISUAL STUDIO 2010\PROJECTS\ASSIGNMENT2\ASSIGNMENT2\DEBUG\DIJKSTRA.OBJ
^C:\USERS\VANCE\DOCUMENTS\VISUAL STUDIO 2010\PROJECTS\ASSIGNMENT2\ASSIGNMENT2\LIST.CPP
C:\USERS\VANCE\DOCUMENTS\VISUAL STUDIO 2010\PROJECTS\ASSIGNMENT2\ASSIGNMENT2\DEBUG\VC100.PDB
C:\USERS\VANCE\DOCUMENTS\VISUAL STUDIO 2010\PROJECTS\ASSIGNMENT2\ASSIGNMENT2\DEBUG\LIST.OBJ
^C:\USERS\VANCE\DOCUMENTS\VISUAL STUDIO 2010\PROJECTS\ASSIGNMENT2\ASSIGNMENT2\MAP.CPP
C:\USERS\VANCE\DOCUMENTS\VISUAL STUDIO 2010\PROJECTS\ASSIGNMENT2\ASSIGNMENT2\DEBUG\VC100.PDB
C:\USERS\VANCE\DOCUMENTS\VISUAL STUDIO 2010\PROJECTS\ASSIGNMENT2\ASSIGNMENT2\DEBUG\MAP.OBJ
^C:\USERS\VANCE\DOCUMENTS\VISUAL STUDIO 2010\PROJECTS\ASSIGNMENT2\ASSIGNMENT2\TOWN.CPP
C:\USERS\VANCE\DOCUMENTS\VISUAL STUDIO 2010\PROJECTS\ASSIGNMENT2\ASSIGNMENT2\DEBUG\VC100.PDB
^C:\USERS\VANCE\DOCUMENTS\VISUAL STUDIO 2010\PROJECTS\ASSIGNMENT2\ASSIGNMENT2\ASSIGNMENT2.CPP|C:\USERS\VANCE\DOCUMENTS\VISUAL STUDIO 2010\PROJECTS\ASSIGNMENT2\ASSIGNMENT2\DIJKSTRA.CPP|C:\USERS\VANCE\DOCUMENTS\VISUAL STUDIO 2010\PROJECTS\ASSIGNMENT2\ASSIGNMENT2\LIST.CPP|C:\USERS\VANCE\DOCUMENTS\VISUAL STUDIO 2010\PROJECTS\ASSIGNMENT2\ASSIGNMENT2\MAP.CPP|C:\USERS\VANCE\DOCUMENTS\VISUAL STUDIO 2010\PROJECTS\ASSIGNMENT2\ASSIGNMENT2\TOWN.CPP
C:\USERS\VANCE\DOCUMENTS\VISUAL STUDIO 2010\PROJECTS\ASSIGNMENT2\ASSIGNMENT2\DEBUG\ASSIGNMENT2.OBJ
C:\USERS\VANCE\DOCUMENTS\VISUAL STUDIO 2010\PROJECTS\ASSIGNMENT2\ASSIGNMENT2\DEBUG\DIJKSTRA.OBJ
C:\USERS\VANCE\DOCUMENTS\VISUAL STUDIO 2010\PROJECTS\ASSIGNMENT2\ASSIGNMENT2\DEBUG\LIST.OBJ
^C:\USERS\VANCE\DOCUMENTS\VISUAL STUDIO 2010\PROJECTS\ASSIGNMENT2\ASSIGNMENT2\ASSIGNMENT2.CPP|C:\USERS\VANCE\DOCUMENTS\VISUAL STUDIO 2010\PROJECTS\ASSIGNMENT2\ASSIGNMENT2\MAP.CPP
C:\USERS\VANCE\DOCUMENTS\VISUAL STUDIO 2010\PROJECTS\ASSIGNMENT2\ASSIGNMENT2\DEBUG\ASSIGNMENT2.OBJ
C:\USERS\VANCE\DOCUMENTS\VISUAL STUDIO 2010\PROJECTS\ASSIGNMENT2\ASSIGNMENT2\DEBUG\MAP.OBJ
^C:\USERS\VANCE\DOCUMENTS\VISUAL STUDIO 2010\PROJECTS\ASSIGNMENT2\ASSIGNMENT2\ASSIGNMENT2.CPP|C:\USERS\VANCE\DOCUMENTS\VISUAL STUDIO 2010\PROJECTS\ASSIGNMENT2\ASSIGNMENT2\LIST.CPP
C:\USERS\VANCE\DOCUMENTS\VISUAL STUDIO 2010\PROJECTS\ASSIGNMENT2\ASSIGNMENT2\DEBUG\ASSIGNMENT2.OBJ
C:\USERS\VANCE\DOCUMENTS\VISUAL STUDIO 2010\PROJECTS\ASSIGNMENT2\ASSIGNMENT2\DEBUG\LIST.OBJ
^C:\USERS\VANCE\DOCUMENTS\VISUAL STUDIO 2010\PROJECTS\ASSIGNMENT2\ASSIGNMENT2\ASSIGNMENT2.CPP|C:\USERS\VANCE\DOCUMENTS\VISUAL STUDIO 2010\PROJECTS\ASSIGNMENT2\ASSIGNMENT2\DIJKSTRA.CPP
C:\USERS\VANCE\DOCUMENTS\VISUAL STUDIO 2010\PROJECTS\ASSIGNMENT2\ASSIGNMENT2\DEBUG\ASSIGNMENT2.OBJ
C:\USERS\VANCE\DOCUMENTS\VISUAL STUDIO 2010\PROJECTS\ASSIGNMENT2\ASSIGNMENT2\DEBUG\DIJKSTRA.OBJ
^C:\USERS\VANCE\DOCUMENTS\VISUAL STUDIO 2010\PROJECTS\ASS2\ASSIGNMENT2.CPP|C:\USERS\VANCE\DOCUMENTS\VISUAL STUDIO 2010\PROJECTS\ASS2\CONNECTION.CPP|C:\USERS\VANCE\DOCUMENTS\VISUAL STUDIO 2010\PROJECTS\ASS2\DIJKSTRA.CPP|C:\USERS\VANCE\DOCUMENTS\VISUAL STUDIO 2010\PROJECTS\ASS2\LIST.CPP|C:\USERS\VANCE\DOCUMENTS\VISUAL STUDIO 2010\PROJECTS\ASS2\MAP.CPP|C:\USERS\VANCE\DOCUMENTS\VISUAL STUDIO 2010\PROJECTS\ASS2\TOWN.CPP
C:\USERS\VANCE\DOCUMENTS\VISUAL STUDIO 2010\PROJECTS\ASS2\DEBUG\ASSIGNMENT2.OBJ
C:\USERS\VANCE\DOCUMENTS\VISUAL STUDIO 2010\PROJECTS\ASS2\DEBUG\CONNECTION.OBJ
C:\USERS\VANCE\DOCUMENTS\VISUAL STUDIO 2010\PROJECTS\ASS2\DEBUG\DIJKSTRA.OBJ
C:\USERS\VANCE\DOCUMENTS\VISUAL STUDIO 2010\PROJECTS\ASS2\DEBUG\MAP.OBJ
C:\USERS\VANCE\DOCUMENTS\VISUAL STUDIO 2010\PROJECTS\ASS2\DEBUG\TOWN.OBJ
C:\USERS\VANCE\DOCUMENTS\VISUAL STUDIO 2010\PROJECTS\ASS2\DEBUG\LIST.OBJ
^C:\USERS\VANCE\DOCUMENTS\VISUAL STUDIO 2010\PROJECTS\ASS2\ASSIGNMENT2.CPP
C:\USERS\VANCE\DOCUMENTS\VISUAL STUDIO 2010\PROJECTS\ASS2\DEBUG\VC100.PDB
C:\USERS\VANCE\DOCUMENTS\VISUAL STUDIO 2010\PROJECTS\ASS2\DEBUG\ASSIGNMENT2.OBJ
^C:\USERS\VANCE\DOCUMENTS\VISUAL STUDIO 2010\PROJECTS\ASS2\CONNECTION.CPP
C:\USERS\VANCE\DOCUMENTS\VISUAL STUDIO 2010\PROJECTS\ASS2\DEBUG\VC100.PDB
^C:\USERS\VANCE\DOCUMENTS\VISUAL STUDIO 2010\PROJECTS\ASS2\DIJKSTRA.CPP
C:\USERS\VANCE\DOCUMENTS\VISUAL STUDIO 2010\PROJECTS\ASS2\DEBUG\VC100.PDB
^C:\USERS\VANCE\DOCUMENTS\VISUAL STUDIO 2010\PROJECTS\ASS2\LIST.CPP
C:\USERS\VANCE\DOCUMENTS\VISUAL STUDIO 2010\PROJECTS\ASS2\DEBUG\VC100.PDB
C:\USERS\VANCE\DOCUMENTS\VISUAL STUDIO 2010\PROJECTS\ASS2\DEBUG\LIST.OBJ
^C:\USERS\VANCE\DOCUMENTS\VISUAL STUDIO 2010\PROJECTS\ASS2\MAP.CPP
C:\USERS\VANCE\DOCUMENTS\VISUAL STUDIO 2010\PROJECTS\ASS2\DEBUG\VC100.PDB
^C:\USERS\VANCE\DOCUMENTS\VISUAL STUDIO 2010\PROJECTS\ASS2\TOWN.CPP
C:\USERS\VANCE\DOCUMENTS\VISUAL STUDIO 2010\PROJECTS\ASS2\DEBUG\VC100.PDB
^C:\USERS\VANCE\DOCUMENTS\VISUAL STUDIO 2010\PROJECTS\ASS2\ASSIGNMENT2.CPP|C:\USERS\VANCE\DOCUMENTS\VISUAL STUDIO 2010\PROJECTS\ASS2\MAP.CPP
C:\USERS\VANCE\DOCUMENTS\VISUAL STUDIO 2010\PROJECTS\ASS2\DEBUG\ASSIGNMENT2.OBJ
C:\USERS\VANCE\DOCUMENTS\VISUAL STUDIO 2010\PROJECTS\ASS2\DEBUG\MAP.OBJ
^C:\USERS\VANCE\DOCUMENTS\VISUAL STUDIO 2010\PROJECTS\ASS2\ASSIGNMENT2.CPP|C:\USERS\VANCE\DOCUMENTS\VISUAL STUDIO 2010\PROJECTS\ASS2\DIJKSTRA.CPP|C:\USERS\VANCE\DOCUMENTS\VISUAL STUDIO 2010\PROJECTS\ASS2\MAP.CPP
C:\USERS\VANCE\DOCUMENTS\VISUAL STUDIO 2010\PROJECTS\ASS2\DEBUG\MAP.OBJ
^C:\USERS\VANCE\DOCUMENTS\VISUAL STUDIO 2010\PROJECTS\ASS2\ASSIGNMENT2.CPP|C:\USERS\VANCE\DOCUMENTS\VISUAL STUDIO 2010\PROJECTS\ASS2\DIJKSTRA.CPP|C:\USERS\VANCE\DOCUMENTS\VISUAL STUDIO 2010\PROJECTS\ASS2\LIST.CPP|C:\USERS\VANCE\DOCUMENTS\VISUAL STUDIO 2010\PROJECTS\ASS2\MAP.CPP|C:\USERS\VANCE\DOCUMENTS\VISUAL STUDIO 2010\PROJECTS\ASS2\TOWN.CPP
C:\USERS\VANCE\DOCUMENTS\VISUAL STUDIO 2010\PROJECTS\ASS2\DEBUG\ASSIGNMENT2.OBJ
C:\USERS\VANCE\DOCUMENTS\VISUAL STUDIO 2010\PROJECTS\ASS2\DEBUG\LIST.OBJ
C:\USERS\VANCE\DOCUMENTS\VISUAL STUDIO 2010\PROJECTS\ASS2\DEBUG\MAP.OBJ
C:\USERS\VANCE\DOCUMENTS\VISUAL STUDIO 2010\PROJECTS\ASS2\DEBUG\TOWN.OBJ
^C:\USERS\VANCE\DOCUMENTS\VISUAL STUDIO 2010\PROJECTS\ASS2\DIJKSTRA.CPP|C:\USERS\VANCE\DOCUMENTS\VISUAL STUDIO 2010\PROJECTS\ASS2\TOWN.CPP
C:\USERS\VANCE\DOCUMENTS\VISUAL STUDIO 2010\PROJECTS\ASS2\DEBUG\DIJKSTRA.OBJ
C:\USERS\VANCE\DOCUMENTS\VISUAL STUDIO 2010\PROJECTS\ASS2\DEBUG\TOWN.OBJ
^C:\USERS\VANCE\DOCUMENTS\VISUAL STUDIO 2010\PROJECTS\ASS2\ASSIGNMENT2.CPP|C:\USERS\VANCE\DOCUMENTS\VISUAL STUDIO 2010\PROJECTS\ASS2\DIJKSTRA.CPP|C:\USERS\VANCE\DOCUMENTS\VISUAL STUDIO 2010\PROJECTS\ASS2\LIST.CPP|C:\USERS\VANCE\DOCUMENTS\VISUAL STUDIO 2010\PROJECTS\ASS2\MAP.CPP
C:\USERS\VANCE\DOCUMENTS\VISUAL STUDIO 2010\PROJECTS\ASS2\DEBUG\ASSIGNMENT2.OBJ
C:\USERS\VANCE\DOCUMENTS\VISUAL STUDIO 2010\PROJECTS\ASS2\DEBUG\DIJKSTRA.OBJ
C:\USERS\VANCE\DOCUMENTS\VISUAL STUDIO 2010\PROJECTS\ASS2\DEBUG\LIST.OBJ
C:\USERS\VANCE\DOCUMENTS\VISUAL STUDIO 2010\PROJECTS\ASS2\DEBUG\MAP.OBJ
